"s";"%";"MPa"
0;0;5,5799
0,02;-0,0017855;5,58272
0,04;-0,00328935;5,57993
0,06;-0,00397052;5,58323
0,08;-0,00411752;5,58641
0,1;-0,00228165;5,58911
0,12;-0,00080178;5,59506
0,14;0,00121706;5,59392
0,16;0,00170395;5,60029
0,18;0,00182422;5,60253
0,2;0,00102518;5,60224
0,22;-0,00128045;5,60287
0,24;-0,0028148;5,60958
0,26;-0,00357066;5,60222
0,28;-0,00381325;5,60987
0,3;-0,00275072;5,60968
0,32;-0,000618467;5,60273
0,34;0,000798696;5,60565
0,36;0,00155353;5,6091
0,38;0,00223196;5,6039
0,4;0,00120198;5,6011
0,42;-0,000706526;5,61763
0,44;-0,00192187;5,60853
0,46;-0,00320267;5,60566
0,48;-0,0038578;5,60962
0,5;-0,00259996;5,61123
0,52;-0,00106733;5,60413
0,54;0,000114099;5,60874
0,56;0,00167072;5,6121
0,58;0,00235806;5,61404
0,6;0,0010358;5,62827
0,62;0,000716462;5,6411
0,64;-0,00180229;5,68342
0,66;-0,00323864;5,73913
0,68;-0,00286516;5,81012
0,7;-0,00227925;5,89172
0,72;-0,00170464;6,00138
0,74;0,0016834;6,10787
0,76;0,00209628;6,25055
0,78;0,00258488;6,4087
0,8;0,00255919;6,58462
0,82;0,00157307;6,75891
0,84;-0,000556792;6,96073
0,86;-0,000854889;7,15713
0,88;-0,00175055;7,37116
0,9;-0,00138598;7,5926
0,92;-0,000169607;7,83296
0,94;0,00263354;8,09489
0,96;0,00295528;8,37637
0,98;0,00448997;8,65289
1;0,00453794;8,96117
1,02;0,00363302;9,28349
1,04;0,00246051;9,60723
1,06;0,00143704;9,94233
1,08;0,000464279;10,3027
1,1;0,000986464;10,6644
1,12;0,00244166;11,0525
1,14;0,00410244;11,4521
1,16;0,0058506;11,8623
1,18;0,00734588;12,2916
1,2;0,00738871;12,7361
1,22;0,00715023;13,1705
1,24;0,00584854;13,6094
1,26;0,00469727;14,0648
1,28;0,00446735;14,5237
1,3;0,00456158;14,9679
1,32;0,0053846;15,4274
1,34;0,00714304;15,8827
1,36;0,00876853;16,3347
1,38;0,010392;16,777
1,4;0,0105074;17,2308
1,42;0,010591;17,6918
1,44;0,00987423;18,1686
1,46;0,00874865;18,6311
1,48;0,00836661;19,0957
1,5;0,00835633;19,5532
1,52;0,00891038;20,0104
1,54;0,0106589;20,4685
1,56;0,0124201;20,9318
1,58;0,0145705;21,3908
1,6;0,014321;21,8844
1,62;0,0142056;22,3535
1,64;0,0145797;22,8168
1,66;0,0126136;23,3014
1,68;0,0104536;23,7848
1,7;0,0136234;24,2348
1,72;0,012812;24,7275
1,74;0,0132931;25,2044
1,76;0,0172407;25,6709
1,78;0,0178088;26,1506
1,8;0,0172705;26,6373
1,82;0,0191989;27,0933
1,84;0,0175233;27,5615
1,86;0,0159534;28,0185
1,88;0,0159904;28,481
1,9;0,0163217;28,9362
1,92;0,0153459;29,4124
1,94;0,0175288;29,8718
1,96;0,019917;30,3447
1,98;0,0199609;30,8064
2;0,0212081;31,275
2,02;0,0224046;31,7228
2,04;0,0205903;32,1964
2,06;0,0205211;32,6555
2,08;0,0197598;33,1167
2,1;0,0195573;33,5703
2,12;0,0192424;34,0365
2,14;0,0206911;34,4938
2,16;0,0228329;34,956
2,18;0,0233739;35,4134
2,2;0,0245304;35,8715
2,22;0,0259972;36,3306
2,24;0,0242658;36,7864
2,26;0,024236;37,2477
2,28;0,023488;37,7128
2,3;0,0226804;38,1633
2,32;0,0228744;38,6179
2,34;0,0244488;39,0664
2,36;0,0251091;39,5128
2,38;0,026481;39,9525
2,4;0,0281151;40,4101
2,42;0,0287157;40,8563
2,44;0,0286044;41,3129
2,46;0,028322;41,7533
2,48;0,0267962;42,1907
2,5;0,0267843;42,6433
2,52;0,0267486;43,0843
2,54;0,027597;43,5257
2,56;0,0281493;43,9765
2,58;0,0298358;44,4278
2,6;0,0325403;44,8798
2,62;0,0313177;45,3395
2,64;0,0317854;45,7746
2,66;0,0330851;46,2151
2,68;0,0297245;46,6734
2,7;0,0297265;47,1143
2,72;0,0319376;47,5482
2,74;0,0301404;48,0167
2,76;0,0316367;48,4695
2,78;0,0347849;48,9049
2,8;0,03448;49,3515
2,82;0,0355984;49,7994
2,84;0,0357943;50,2378
2,86;0,0352225;50,6905
2,88;0,0343703;51,1416
2,9;0,0342062;51,5795
2,92;0,0338947;52,0327
2,94;0,0338382;52,4753
2,96;0,0353263;52,9201
2,98;0,0370769;53,3698
3;0,0374239;53,8332
3,02;0,0386756;54,276
3,04;0,039022;54,7312
3,06;0,038873;55,1709
3,08;0,0382689;55,6193
3,1;0,0380931;56,0554
3,12;0,0370477;56,514
3,14;0,0372088;56,9514
3,16;0,0387041;57,4034
3,18;0,0394914;57,8435
3,2;0,0404114;58,2926
3,22;0,0420345;58,7315
3,24;0,0421264;59,1846
3,26;0,04225;59,6331
3,28;0,0419667;60,0862
3,3;0,0411282;60,5345
3,32;0,0408983;60,9718
3,34;0,0409573;61,4121
3,36;0,0411752;61,8566
3,38;0,0422997;62,2957
3,4;0,0434757;62,743
3,42;0,0451351;63,1868
3,44;0,0452632;63,6289
3,46;0,0453229;64,0731
3,48;0,0451697;64,5211
3,5;0,0450535;64,955
3,52;0,0445358;65,3976
3,54;0,0444635;65,8347
3,56;0,0449278;66,2763
3,58;0,0454315;66,7113
3,6;0,047096;67,1562
3,62;0,0490871;67,5954
3,64;0,0486653;68,0423
3,66;0,0489175;68,476
3,68;0,0489895;68,9245
3,7;0,0479101;69,358
3,72;0,0478505;69,8075
3,74;0,0478012;70,2492
3,76;0,0477789;70,698
3,78;0,0485608;71,1268
3,8;0,0509734;71,5664
3,82;0,0512166;71,9866
3,84;0,0516055;72,4276
3,86;0,0525899;72,8582
3,88;0,0520421;73,298
3,9;0,0518714;73,7336
3,92;0,0515915;74,1776
3,94;0,0511436;74,583
3,96;0,0511251;75,0075
3,98;0,0520438;75,4386
4;0,0530035;75,8643
4,02;0,0539632;76,2753
4,04;0,0546557;76,7042
4,06;0,0555014;77,1219
4,08;0,0554246;77,5359
4,1;0,0553516;77,9601
4,12;0,054741;78,3954
4,14;0,0547099;78,8176
4,16;0,0546811;79,2393
4,18;0,0552677;79,6597
4,2;0,055747;80,0698
4,22;0,0570117;80,4847
4,24;0,0582134;80,912
4,26;0,0584916;81,3293
4,28;0,058456;81,7544
4,3;0,0584727;82,187
4,32;0,0579588;82,6038
4,34;0,0579081;83,0308
4,36;0,0579369;83,4656
4,38;0,0583275;83,8915
4,4;0,0588911;84,3118
4,42;0,0607177;84,7421
4,44;0,0612026;85,1647
4,46;0,0615288;85,5787
4,48;0,0615212;85,9959
4,5;0,0615572;86,4238
4,52;0,0612992;86,8608
4,54;0,061242;87,2915
4,56;0,0612766;87,7217
4,58;0,0613626;88,1424
4,6;0,0615284;88,5519
4,62;0,0634517;88,955
4,64;0,0642055;89,3628
4,66;0,0645817;89,7854
4,68;0,0652577;90,2008
4,7;0,0651563;90,6117
4,72;0,0648325;91,0406
4,74;0,0648006;91,4638
4,76;0,0644364;91,875
4,78;0,0645049;92,302
4,8;0,0654013;92,7311
4,82;0,0666235;93,1272
4,84;0,0671059;93,5428
4,86;0,0681599;93,9518
4,88;0,0681846;94,3565
4,9;0,068153;94,7642
4,92;0,0680557;95,1907
4,94;0,0679728;95,6003
4,96;0,0678279;96,0231
4,98;0,0680184;96,4351
5;0,0683881;96,8554
5,02;0,0694585;97,2693
5,04;0,0701938;97,6933
5,06;0,0715294;98,1053
5,08;0,0715449;98,5278
5,1;0,0715966;98,9517
5,12;0,0714828;99,3686
5,14;0,071378;99,7763
5,16;0,0713105;100,178
5,18;0,0713698;100,582
5,2;0,0715983;100,982
5,22;0,0724607;101,388
5,24;0,073552;101,79
5,26;0,074226;102,203
5,28;0,0746403;102,626
5,3;0,0748859;103,038
5,32;0,0747667;103,444
5,34;0,0746978;103,867
5,36;0,0745577;104,281
5,38;0,0745827;104,68
5,4;0,074715;105,077
5,42;0,075501;105,493
5,44;0,0764559;105,885
5,46;0,0771412;106,283
5,48;0,0776641;106,694
5,5;0,0778913;107,117
5,52;0,0777782;107,515
5,54;0,0777679;107,926
5,56;0,0776106;108,337
5,58;0,077685;108,731
5,6;0,0777981;109,123
5,62;0,07857;109,533
5,64;0,0791045;109,931
5,66;0,0806749;110,325
5,68;0,0808171;110,73
5,7;0,0808863;111,137
5,72;0,0809212;111,533
5,74;0,080864;111,941
5,76;0,080753;112,351
5,78;0,0807763;112,765
5,8;0,0808321;113,176
5,82;0,0813118;113,581
5,84;0,0822678;113,997
5,86;0,083795;114,411
5,88;0,0839337;114,817
5,9;0,0841359;115,215
5,92;0,0841678;115,627
5,94;0,0841208;116,031
5,96;0,0839958;116,442
5,98;0,0840526;116,842
6;0,0840523;117,247
6,02;0,0844501;117,646
6,04;0,0854187;118,036
6,06;0,0866218;118,417
6,08;0,0869606;118,806
6,1;0,0874527;119,199
6,12;0,087502;119,594
6,14;0,0874927;119,992
6,16;0,087379;120,405
6,18;0,0873941;120,814
6,2;0,0874273;121,223
6,22;0,0879748;121,637
6,24;0,0887088;122,049
6,26;0,0897295;122,449
6,28;0,0904974;122,864
6,3;0,0909144;123,261
6,32;0,0909387;123,652
6,34;0,0909195;124,052
6,36;0,0907965;124,461
6,38;0,090815;124,85
6,4;0,090828;125,246
6,42;0,0912974;125,636
6,44;0,0920029;126,025
6,46;0,0929181;126,413
6,48;0,0936911;126,803
6,5;0,0939988;127,206
6,52;0,094006;127,616
6,54;0,0940749;128,017
6,56;0,0939091;128,403
6,58;0,0938844;128,796
6,6;0,093882;129,176
6,62;0,094325;129,559
6,64;0,0945854;129,95
6,66;0,0956284;130,338
6,68;0,0965625;130,733
6,7;0,0969459;131,124
6,72;0,0969774;131,504
6,74;0,0975023;131,88
6,76;0,09732;132,275
6,78;0,0972275;132,659
6,8;0,0972776;133,038
6,82;0,0973327;133,423
6,84;0,0976456;133,802
6,86;0,0989637;134,175
6,88;0,0993372;134,562
6,9;0,0999683;134,941
6,92;0,100143;135,324
6,94;0,100197;135,704
6,96;0,100101;136,086
6,98;0,100112;136,456
7;0,100094;136,837
7,02;0,100153;137,207
7,04;0,100522;137,585
7,06;0,101671;137,955
7,08;0,102508;138,333
7,1;0,102913;138,713
7,12;0,103086;139,105
7,14;0,103623;139,48
7,16;0,103535;139,863
7,18;0,103554;140,23
7,2;0,103538;140,593
7,22;0,103613;140,951
7,24;0,103696;141,327
7,26;0,104643;141,69
7,28;0,105439;142,073
7,3;0,105929;142,45
7,32;0,106594;142,825
7,34;0,106732;143,2
7,36;0,10666;143,587
7,38;0,106668;143,958
7,4;0,106599;144,322
7,42;0,106783;144,685
7,44;0,106795;145,04
7,46;0,10777;145,399
7,48;0,108469;145,764
7,5;0,109175;146,133
7,52;0,109516;146,503
7,54;0,109936;146,876
7,56;0,109855;147,238
7,58;0,109847;147,601
7,6;0,109902;147,98
7,62;0,109974;148,345
7,64;0,110035;148,713
7,66;0,110808;149,083
7,68;0,111439;149,447
7,7;0,11184;149,801
7,72;0,112509;150,174
7,74;0,112708;150,539
7,76;0,112741;150,9
7,78;0,112734;151,271
7,8;0,112716;151,643
7,82;0,112736;152,001
7,84;0,112784;152,37
7,86;0,114151;152,729
7,88;0,114399;153,084
7,9;0,115047;153,432
7,92;0,115716;153,784
7,94;0,115866;154,142
7,96;0,115869;154,496
7,98;0,116081;154,848
8;0,115966;155,212
8,02;0,115997;155,579
8,04;0,11621;155,923
8,06;0,116444;156,293
8,08;0,117079;156,654
8,1;0,118137;157,004
8,12;0,118396;157,352
8,14;0,118612;157,709
8,16;0,118786;158,05
8,18;0,118838;158,403
8,2;0,118841;158,753
8,22;0,118869;159,105
8,24;0,118887;159,459
8,26;0,11922;159,804
8,28;0,120024;160,143
8,3;0,120876;160,483
8,32;0,121132;160,83
8,34;0,121586;161,168
8,36;0,121729;161,523
8,38;0,121782;161,874
8,4;0,121717;162,235
8,42;0,121801;162,583
8,44;0,121819;162,938
8,46;0,122277;163,28
8,48;0,122831;163,638
8,5;0,123679;163,988
8,52;0,123845;164,33
8,54;0,124455;164,678
8,56;0,124571;165,033
8,58;0,124601;165,381
8,6;0,12461;165,736
8,62;0,124842;166,092
8,64;0,124873;166,448
8,66;0,125241;166,81
8,68;0,125689;167,169
8,7;0,126308;167,517
8,72;0,126934;167,871
8,74;0,127575;168,214
8,76;0,127703;168,558
8,78;0,127792;168,902
8,8;0,127775;169,25
8,82;0,127814;169,607
8,84;0,127788;169,97
8,86;0,1282;170,322
8,88;0,12855;170,672
8,9;0,129009;171,033
8,92;0,129649;171,393
8,94;0,13026;171,75
8,96;0,130385;172,113
8,98;0,130667;172,478
9;0,130699;172,825
9,02;0,130725;173,171
9,04;0,130711;173,517
9,06;0,131447;173,858
9,08;0,131536;174,205
9,1;0,132398;174,552
9,12;0,132887;174,9
9,14;0,13312;175,253
9,16;0,133575;175,597
9,18;0,133978;175,943
9,2;0,133902;176,311
9,22;0,133944;176,655
9,24;0,134082;176,989
9,26;0,134143;177,338
9,28;0,13435;177,685
9,3;0,135249;178,009
9,32;0,13549;178,342
9,34;0,136099;178,689
9,36;0,136351;179,03
9,38;0,136442;179,359
9,4;0,136518;179,699
9,42;0,136779;180,047
9,44;0,136765;180,4
9,46;0,136942;180,74
9,48;0,13729;181,078
9,5;0,137983;181,418
9,52;0,13863;181,757
9,54;0,139091;182,079
9,56;0,139274;182,407
9,58;0,139682;182,749
9,6;0,139851;183,087
9,62;0,139858;183,413
9,64;0,139867;183,75
9,66;0,139867;184,093
9,68;0,139966;184,422
9,7;0,140534;184,749
9,72;0,140855;185,094
9,74;0,141693;185,427
9,76;0,142027;185,759
9,78;0,14234;186,097
9,8;0,142441;186,432
9,82;0,14251;186,764
9,84;0,142497;187,097
9,86;0,142558;187,436
9,88;0,142806;187,775
9,9;0,143389;188,132
9,92;0,143803;188,498
9,94;0,145087;188,878
9,96;0,145075;189,269
9,98;0,145636;189,672
10;0,145664;190,087
10,02;0,145647;190,492
10,04;0,145687;190,906
10,06;0,145854;191,333
10,08;0,146006;191,769
10,1;0,1472;192,21
10,12;0,147386;192,661
10,14;0,147603;193,111
10,16;0,148995;193,566
10,18;0,149052;194,031
10,2;0,14908;194,494
10,22;0,149679;194,978
10,24;0,149637;195,471
10,26;0,149838;195,962
10,28;0,150027;196,449
10,3;0,150982;196,946
10,32;0,151133;197,444
10,34;0,152419;197,948
10,36;0,152581;198,459
10,38;0,153352;198,981
10,4;0,153547;199,51
10,42;0,153949;200,054
10,44;0,154015;200,611
10,46;0,154514;201,175
10,48;0,154778;201,744
10,5;0,155253;202,322
10,52;0,156032;202,891
10,54;0,156763;203,455
10,56;0,157204;204,027
10,58;0,157725;204,613
10,6;0,158039;205,204
10,62;0,158785;205,795
10,64;0,158789;206,397
10,66;0,159386;207,006
10,68;0,15947;207,616
10,7;0,160397;208,235
10,72;0,160938;208,872
10,74;0,161676;209,512
10,76;0,162612;210,156
10,78;0,163034;210,805
10,8;0,163455;211,452
10,82;0,164035;212,106
10,84;0,164154;212,776
10,86;0,164913;213,439
10,88;0,165087;214,129
10,9;0,165691;214,826
10,92;0,166291;215,523
10,94;0,167263;216,226
10,96;0,167821;216,942
10,98;0,168748;217,65
11;0,169249;218,366
11,02;0,169681;219,096
11,04;0,17024;219,834
11,06;0,17093;220,585
11,08;0,171307;221,347
11,1;0,172225;222,108
11,12;0,173046;222,878
11,14;0,173663;223,639
11,16;0,174298;224,4
11,18;0,175298;225,155
11,2;0,175457;225,919
11,22;0,176313;226,68
11,24;0,176535;227,451
11,26;0,177157;228,238
11,28;0,177648;229,018
11,3;0,178272;229,797
11,32;0,17913;230,578
11,34;0,180238;231,352
11,36;0,18051;232,132
11,38;0,181621;232,932
11,4;0,182334;233,729
11,42;0,183049;234,534
11,44;0,183305;235,356
11,46;0,184573;236,172
11,48;0,184644;237,001
11,5;0,18568;237,828
11,52;0,186299;238,669
11,54;0,187108;239,509
11,56;0,187698;240,361
11,58;0,188934;241,199
11,6;0,189292;242,055
11,62;0,190007;242,891
11,64;0,190796;243,733
11,66;0,191404;244,572
11,68;0,191678;245,409
11,7;0,192844;246,259
11,72;0,193348;247,129
11,74;0,194337;248,002
11,76;0,195567;248,903
11,78;0,196096;249,814
11,8;0,196955;250,711
11,82;0,197687;251,616
11,84;0,198125;252,529
11,86;0,199203;253,43
11,88;0,199402;254,343
11,9;0,200444;255,269
11,92;0,200913;256,194
11,94;0,202171;257,136
11,96;0,202938;258,087
11,98;0,204193;259,039
12;0,20445;260,003
12,02;0,205529;260,963
12,04;0,205951;261,935
12,06;0,206751;262,893
12,08;0,207405;263,866
12,1;0,208635;264,829
12,12;0,208978;265,818
12,14;0,210212;266,784
12,16;0,211213;267,758
12,18;0,212036;268,725
12,2;0,21282;269,709
12,22;0,213746;270,678
12,24;0,214021;271,659
12,26;0,214938;272,652
12,28;0,215471;273,662
12,3;0,216605;274,654
12,32;0,217046;275,672
12,34;0,218304;276,685
12,36;0,218929;277,694
12,38;0,219884;278,694
12,4;0,22098;279,709
12,42;0,221863;280,703
12,44;0,222221;281,706
12,46;0,223295;282,708
12,48;0,223979;283,697
12,5;0,224495;284,669
12,52;0,225488;285,647
12,54;0,226672;286,621
12,56;0,227078;287,613
12,58;0,228625;288,606
12,6;0,229388;289,621
12,62;0,230077;290,638
12,64;0,231126;291,669
12,66;0,232171;292,692
12,68;0,232373;293,732
12,7;0,233374;294,787
12,72;0,234466;295,846
12,74;0,235118;296,912
12,76;0,236409;297,986
12,78;0,237715;299,051
12,8;0,238392;300,118
12,82;0,239249;301,184
12,84;0,240364;302,247
12,86;0,241183;303,304
12,88;0,24132;304,375
12,9;0,242484;305,426
12,92;0,243007;306,485
12,94;0,24382;307,529
12,96;0,244981;308,57
12,98;0,246158;309,613
13;0,246838;310,672
13,02;0,24837;311,726
13,04;0,248829;312,793
13,06;0,250018;313,861
13,08;0,250515;314,923
13,1;0,251856;315,985
13,12;0,252199;317,039
13,14;0,253409;318,088
13,16;0,254045;319,134
13,18;0,255371;320,174
13,2;0,256082;321,209
13,22;0,257113;322,235
13,24;0,257574;323,263
13,26;0,258648;324,291
13,28;0,259252;325,316
13,3;0,260292;326,338
13,32;0,260968;327,362
13,34;0,262225;328,39
13,36;0,262591;329,424
13,38;0,264013;330,448
13,4;0,26485;331,473
13,42;0,265854;332,501
13,44;0,266666;333,522
13,46;0,267743;334,535
13,48;0,268078;335,559
13,5;0,269348;336,578
13,52;0,27002;337,605
13,54;0,270841;338,624
13,56;0,271502;339,636
13,58;0,272596;340,67
13,6;0,273428;341,708
13,62;0,274549;342,745
13,64;0,275342;343,801
13,66;0,276484;344,853
13,68;0,277105;345,895
13,7;0,277946;346,934
13,72;0,278661;347,968
13,74;0,27961;348,989
13,76;0,280432;350,028
13,78;0,281519;351,049
13,8;0,282218;352,084
13,82;0,283362;353,13
13,84;0,284296;354,183
13,86;0,285076;355,231
13,88;0,285788;356,299
13,9;0,286838;357,362
13,92;0,287465;358,429
13,94;0,288486;359,51
13,96;0,289225;360,605
13,98;0,290612;361,69
14;0,291432;362,787
14,02;0,292344;363,865
14,04;0,293079;364,946
14,06;0,294071;366,011
14,08;0,2951;367,086
14,1;0,295916;368,158
14,12;0,29677;369,249
14,14;0,297824;370,321
14,16;0,298512;371,408
14,18;0,299859;372,499
14,2;0,300548;373,581
14,22;0,301709;374,658
14,24;0,302631;375,747
14,26;0,303627;376,836
14,28;0,304257;377,912
14,3;0,305689;378,993
14,32;0,305992;380,085
14,34;0,307076;381,169
14,36;0,308057;382,23
14,38;0,309197;383,302
14,4;0,309488;384,382
14,42;0,310934;385,446
14,44;0,311874;386,511
14,46;0,312628;387,6
14,48;0,313745;388,687
14,5;0,314662;389,759
14,52;0,315119;390,84
14,54;0,316847;391,926
14,56;0,317276;393
14,58;0,318444;394,078
14,6;0,319384;395,16
14,62;0,320551;396,223
14,64;0,32122;397,292
14,66;0,32242;398,355
14,68;0,322881;399,423
14,7;0,324253;400,48
14,72;0,325175;401,546
14,74;0,326207;402,596
14,76;0,327322;403,651
14,78;0,328422;404,7
14,8;0,329141;405,745
14,82;0,330809;406,795
14,84;0,331307;407,856
14,86;0,332551;408,925
14,88;0,333421;409,989
14,9;0,334183;411,061
14,92;0,334908;412,149
14,94;0,336215;413,237
14,96;0,336731;414,319
14,98;0,338514;415,391
15;0,338929;416,471
15,02;0,340609;417,515
15,04;0,341745;418,551
15,06;0,342368;419,582
15,08;0,343729;420,626
15,1;0,34497;421,663
15,12;0,345144;422,715
15,14;0,347176;423,762
15,16;0,347273;424,818
15,18;0,348664;425,871
15,2;0,349535;426,912
15,22;0,350842;427,933
15,24;0,351277;428,954
15,26;0,352618;429,961
15,28;0,353709;430,967
15,3;0,354585;431,963
15,32;0,355701;433
15,34;0,357109;434,03
15,36;0,357603;435,075
15,38;0,359216;436,119
15,4;0,359794;437,181
15,42;0,361687;438,221
15,44;0,362251;439,265
15,46;0,363693;440,293
15,48;0,364356;441,311
15,5;0,366049;442,331
15,52;0,366273;443,349
15,54;0,367499;444,364
15,56;0,368697;445,392
15,58;0,369581;446,42
15,6;0,370495;447,423
15,62;0,372431;448,431
15,64;0,372678;449,443
15,66;0,374462;450,442
15,68;0,375586;451,454
15,7;0,376077;452,48
15,72;0,377262;453,512
15,74;0,378561;454,56
15,76;0,379215;455,62
15,78;0,380895;456,671
15,8;0,381678;457,725
15,82;0,382765;458,75
15,84;0,384201;459,763
15,86;0,385573;460,763
15,88;0,386304;461,766
15,9;0,387978;462,78
15,92;0,388316;463,821
15,94;0,390003;464,866
15,96;0,390935;465,913
15,98;0,392139;466,957
16;0,392958;467,993
16,02;0,394685;469,019
16,04;0,395377;470,035
16,06;0,396297;471,054
16,08;0,397882;472,082
16,1;0,399184;473,116
16,12;0,399524;474,163
16,14;0,401739;475,223
16,16;0,402397;476,292
16,18;0,403333;477,353
16,2;0,40477;478,411
16,22;0,406183;479,462
16,24;0,407079;480,501
16,26;0,40866;481,54
16,28;0,409641;482,567
16,3;0,411323;483,603
16,32;0,412077;484,629
16,34;0,414034;485,666
16,36;0,414249;486,681
16,38;0,415741;487,71
16,4;0,416743;488,744
16,42;0,417914;489,789
16,44;0,418767;490,833
16,46;0,420508;491,896
16,48;0,421499;492,968
16,5;0,422699;494,025
16,52;0,424317;495,08
16,54;0,425629;496,132
16,56;0,426353;497,184
16,58;0,428052;498,222
16,6;0,428949;499,245
16,62;0,430078;500,259
16,64;0,431401;501,27
16,66;0,433186;502,275
16,68;0,433695;503,283
16,7;0,435355;504,305
16,72;0,436681;505,31
16,74;0,437356;506,293
16,76;0,438649;507,277
16,78;0,440254;508,262
16,8;0,440524;509,244
16,82;0,442123;510,247
16,84;0,443293;511,283
16,86;0,444627;512,326
16,88;0,445668;513,377
16,9;0,447372;514,433
16,92;0,448115;515,477
16,94;0,449609;516,493
16,96;0,450585;517,489
16,98;0,451899;518,465
17;0,452928;519,448
17,02;0,454402;520,434
17,04;0,455413;521,434
17,06;0,457013;522,438
17,08;0,458248;523,446
17,1;0,459617;524,442
17,12;0,460915;525,452
17,14;0,462592;526,468
17,16;0,463347;527,496
17,18;0,464935;528,528
17,2;0,465942;529,57
17,22;0,467454;530,621
17,24;0,468647;531,664
17,26;0,470228;532,712
17,28;0,471449;533,774
17,3;0,473095;534,842
17,32;0,47437;535,902
17,34;0,476134;536,974
17,36;0,47721;538,036
17,38;0,478777;539,08
17,4;0,480088;540,108
17,42;0,481885;541,127
17,44;0,483026;542,132
17,46;0,484993;543,153
17,48;0,486548;544,2
17,5;0,487542;545,262
17,52;0,489622;546,334
17,54;0,491055;547,402
17,56;0,49231;548,453
17,58;0,494486;549,474
17,6;0,495497;550,477
17,62;0,497207;551,471
17,64;0,49864;552,466
17,66;0,500404;553,474
17,68;0,501674;554,487
17,7;0,503593;555,496
17,72;0,50491;556,507
17,74;0,506375;557,516
17,76;0,507922;558,523
17,78;0,509639;559,542
17,8;0,51099;560,583
17,82;0,512964;561,632
17,84;0,514568;562,694
17,86;0,516266;563,743
17,88;0,517997;564,796
17,9;0,520308;565,841
17,92;0,521121;566,876
17,94;0,523269;567,903
17,96;0,524705;568,938
17,98;0,526306;569,941
18;0,527995;570,937
18,02;0,530041;571,93
18,04;0,531272;572,926
18,06;0,533182;573,935
18,08;0,534965;574,968
18,1;0,536908;576,003
18,12;0,538324;577,047
18,14;0,540895;578,098
18,16;0,541931;579,127
18,18;0,54398;580,146
18,2;0,545926;581,158
18,22;0,547871;582,166
18,24;0,549255;583,171
18,26;0,551497;584,176
18,28;0,553165;585,184
18,3;0,555151;586,198
18,32;0,556918;587,212
18,34;0,5592;588,216
18,36;0,560386;589,228
18,38;0,562855;590,247
18,4;0,56439;591,279
18,42;0,566359;592,317
18,44;0,56839;593,381
18,46;0,570726;594,444
18,48;0,572378;595,5
18,5;0,574737;596,55
18,52;0,576661;597,588
18,54;0,578782;598,607
18,56;0,580688;599,627
18,58;0,58315;600,64
18,6;0,584798;601,641
18,62;0,586983;602,657
18,64;0,589195;603,672
18,66;0,591537;604,708
18,68;0,593696;605,773
18,7;0,596116;606,837
18,72;0,598065;607,891
18,74;0,600755;608,939
18,76;0,602674;609,966
18,78;0,605141;610,969
18,8;0,607417;612,001
18,82;0,609419;613,031
18,84;0,612091;614,061
18,86;0,614395;615,081
18,88;0,616299;616,089
18,9;0,619372;617,063
18,92;0,621297;618,034
18,94;0,623727;619,023
18,96;0,626303;620,037
18,98;0,628762;621,078
19;0,631196;622,125
19,02;0,634036;623,172
19,04;0,636334;624,195
19,06;0,639088;625,2
19,08;0,64134;626,191
19,1;0,644436;627,192
19,12;0,647034;628,194
19,14;0,64962;629,211
19,16;0,652472;630,217
19,18;0,655226;631,226
19,2;0,657735;632,232
19,22;0,660871;633,255
19,24;0,66343;634,269
19,26;0,666397;635,286
19,28;0,669468;636,293
19,3;0,67216;637,285
19,32;0,675001;638,28
19,34;0,678603;639,28
19,36;0,680981;640,268
19,38;0,684049;641,253
19,4;0,687385;642,23
19,42;0,690239;643,179
19,44;0,693241;644,121
19,46;0,696839;645,079
19,48;0,699798;646,059
19,5;0,703004;647,063
19,52;0,706728;648,059
19,54;0,710363;649,039
19,56;0,713126;650,017
19,58;0,716608;650,972
19,6;0,720016;651,902
19,62;0,723422;652,847
19,64;0,726508;653,804
19,66;0,730529;654,755
19,68;0,734003;655,709
19,7;0,737688;656,659
19,72;0,741336;657,59
19,74;0,745095;658,522
19,76;0,748746;659,449
19,78;0,752831;660,353
19,8;0,756608;661,269
19,82;0,760561;662,176
19,84;0,764419;663,081
19,86;0,768494;663,976
19,88;0,772708;664,865
19,9;0,776728;665,727
19,92;0,780362;666,582
19,94;0,784958;667,431
19,96;0,788728;668,285
19,98;0,792606;669,151
20;0,797423;670,037
20,02;0,801831;670,927
20,04;0,805744;671,793
20,06;0,810816;672,627
20,08;0,815543;673,456
20,1;0,819327;674,259
20,12;0,824518;675,055
20,14;0,829524;675,855
20,16;0,833258;676,663
20,18;0,8386;677,455
20,2;0,843314;678,246
20,22;0,847961;679,048
20,24;0,853198;679,851
20,26;0,858524;680,645
20,28;0,863393;681,428
20,3;0,868682;682,202
20,32;0,874436;682,95
20,34;0,879253;683,68
20,36;0,884821;684,405
20,38;0,8904;685,112
20,4;0,89554;685,802
20,42;0,901075;686,492
20,44;0,906193;687,171
20,46;0,91192;687,862
20,48;0,917358;688,57
20,5;0,92299;689,27
20,52;0,929102;689,951
20,54;0,935244;690,604
20,56;0,940934;691,232
20,58;0,947163;691,845
20,6;0,953162;692,475
20,62;0,958951;693,097
20,64;0,965062;693,72
20,66;0,971466;694,333
20,68;0,97744;694,941
20,7;0,984282;695,525
20,72;0,990624;696,118
20,74;0,996793;696,713
20,76;1,00348;697,315
20,78;1,01047;697,907
20,8;1,01707;698,49
20,82;1,02407;699,042
20,84;1,03079;699,592
20,86;1,03739;700,111
20,88;1,04459;700,614
20,9;1,05174;701,114
20,92;1,05842;701,623
20,94;1,06587;702,141
20,96;1,07276;702,652
20,98;1,0797;703,17
21;1,08747;703,673
21,02;1,09468;704,173
21,04;1,10205;704,634
21,06;1,10975;705,094
21,08;1,11751;705,546
21,1;1,12451;706,001
21,12;1,13262;706,45
21,14;1,14025;706,895
21,16;1,14767;707,323
21,18;1,15557;707,745
21,2;1,16349;708,157
21,22;1,17082;708,57
21,24;1,1791;709,003
21,26;1,18708;709,447
21,28;1,19493;709,879
21,3;1,20311;710,305
21,32;1,21129;710,69
21,34;1,21951;711,061
21,36;1,22777;711,415
21,38;1,23638;711,769
21,4;1,24427;712,114
21,42;1,25287;712,483
21,44;1,26081;712,846
21,46;1,26928;713,221
21,48;1,27767;713,587
21,5;1,28634;713,96
21,52;1,29498;714,317
21,54;1,30399;714,658
21,56;1,31261;714,996
21,58;1,32155;715,336
21,6;1,33014;715,676
21,62;1,33905;716,005
21,64;1,34801;716,33
21,66;1,35659;716,625
21,68;1,36561;716,921
21,7;1,37433;717,215
21,72;1,38321;717,531
21,74;1,39223;717,868
21,76;1,40106;718,211
21,78;1,4102;718,535
21,8;1,41959;718,834
21,82;1,42882;719,118
21,84;1,4378;719,385
21,86;1,44711;719,669
21,88;1,45629;719,946
21,9;1,46569;720,234
21,92;1,47467;720,517
21,94;1,48417;720,793
21,96;1,49301;721,06
21,98;1,5025;721,339
22;1,51204;721,617
22,02;1,5215;721,885
22,04;1,53101;722,164
22,06;1,54061;722,437
22,08;1,54975;722,709
22,1;1,55928;722,969
22,12;1,56862;723,22
22,14;1,57791;723,461
22,16;1,58736;723,701
22,18;1,5968;723,94
22,2;1,60618;724,194
22,22;1,61592;724,466
22,24;1,62547;724,744
22,26;1,63533;725,014
22,28;1,64497;725,275
22,3;1,65507;725,511
22,32;1,66454;725,743
22,34;1,67436;725,979
22,36;1,68412;726,204
22,38;1,69407;726,437
22,4;1,70363;726,681
22,42;1,71322;726,921
22,44;1,72261;727,144
22,46;1,73258;727,368
22,48;1,74202;727,592
22,5;1,7521;727,832
22,52;1,76208;728,078
22,54;1,77183;728,322
22,56;1,78168;728,565
22,58;1,79171;728,791
22,6;1,8012;728,997
22,62;1,81077;729,197
22,64;1,82093;729,385
22,66;1,83026;729,587
22,68;1,83994;729,808
22,7;1,84996;730,039
22,72;1,85941;730,271
22,74;1,86935;730,517
22,76;1,87948;730,746
22,78;1,8894;730,959
22,8;1,89956;731,162
22,82;1,90978;731,368
22,84;1,91949;731,583
22,86;1,92951;731,807
22,88;1,93966;732,026
22,9;1,9493;732,239
22,92;1,95901;732,44
22,94;1,96925;732,626
22,96;1,97866;732,819
22,98;1,98859;733,031
23;1,99857;733,251
23,02;2,009;733,479
23,04;2,01859;733,699
23,06;2,02912;733,908
23,08;2,03892;734,11
23,1;2,04866;734,305
23,12;2,05906;734,49
23,14;2,06905;734,683
23,16;2,07903;734,879
23,18;2,089;735,085
23,2;2,09887;735,293
23,22;2,10857;735,511
23,24;2,11851;735,713
23,26;2,12867;735,919
23,28;2,13855;736,099
23,3;2,14839;736,272
23,32;2,15865;736,455
23,34;2,16822;736,655
23,36;2,17841;736,84
23,38;2,18848;737,033
23,4;2,19832;737,226
23,42;2,20812;737,401
23,44;2,21806;737,579
23,46;2,22766;737,779
23,48;2,23768;737,989
23,5;2,24757;738,203
23,52;2,25752;738,409
23,54;2,26758;738,609
23,56;2,27753;738,781
23,58;2,28766;738,945
23,6;2,29766;739,108
23,62;2,30749;739,284
23,64;2,31755;739,455
23,66;2,32742;739,648
23,68;2,33714;739,84
23,7;2,34733;740,02
23,72;2,35692;740,195
23,74;2,36681;740,381
23,76;2,37668;740,561
23,78;2,38706;740,743
23,8;2,3967;740,945
23,82;2,40696;741,143
23,84;2,4169;741,325
23,86;2,42665;741,505
23,88;2,43681;741,667
23,9;2,44682;741,822
23,92;2,4566;741,992
23,94;2,46652;742,175
23,96;2,47642;742,362
23,98;2,48638;742,576
24;2,49644;742,799
24,02;2,50678;742,99
24,04;2,51662;743,16
24,06;2,52677;743,322
24,08;2,53661;743,472
24,1;2,5464;743,616
24,12;2,55621;743,79
24,14;2,56629;743,976
24,16;2,57607;744,157
24,18;2,58604;744,332
24,2;2,59572;744,508
24,22;2,6057;744,673
24,24;2,61569;744,843
24,26;2,62591;745,025
24,28;2,63581;745,213
24,3;2,64613;745,39
24,32;2,65615;745,577
24,34;2,66617;745,744
24,36;2,67624;745,902
24,38;2,68636;746,048
24,4;2,69602;746,201
24,42;2,706;746,355
24,44;2,71579;746,532
24,46;2,72585;746,727
24,48;2,73573;746,932
24,5;2,74602;747,133
24,52;2,75609;747,308
24,54;2,7663;747,461
24,56;2,77639;747,603
24,58;2,7862;747,754
24,6;2,79628;747,912
24,62;2,80628;748,077
24,64;2,81602;748,25
24,66;2,82643;748,411
24,68;2,83564;748,564
24,7;2,84574;748,708
24,72;2,85588;748,863
24,74;2,86548;749,031
24,76;2,87542;749,206
24,78;2,88566;749,371
24,8;2,89529;749,548
24,82;2,90537;749,707
24,84;2,9151;749,843
24,86;2,92471;749,984
24,88;2,93488;750,125
24,9;2,94456;750,259
24,92;2,95393;750,43
24,94;2,96411;750,618
24,96;2,9737;750,808
24,98;2,98361;751,004
25;2,99397;751,203
25,02;3,00395;751,365
25,04;3,01404;751,518
25,06;3,02424;751,669
25,08;3,03386;751,818
25,1;3,04393;751,955
25,12;3,05365;752,112
25,14;3,06363;752,255
25,16;3,07326;752,403
25,18;3,08296;752,549
25,2;3,09254;752,705
25,22;3,10225;752,861
25,24;3,11201;753,051
25,26;3,12192;753,232
25,28;3,13158;753,405
25,3;3,14162;753,563
25,32;3,15121;753,715
25,34;3,16067;753,846
25,36;3,17054;753,976
25,38;3,18032;754,118
25,4;3,18958;754,265
25,42;3,19909;754,413
25,44;3,2088;754,563
25,46;3,21831;754,727
25,48;3,22792;754,893
25,5;3,23812;755,064
25,52;3,24771;755,228
25,54;3,25721;755,382
25,56;3,26738;755,533
25,58;3,27704;755,68
25,6;3,28647;755,826
25,62;3,29619;755,969
25,64;3,30609;756,114
25,66;3,31547;756,246
25,68;3,32507;756,381
25,7;3,33512;756,529
25,72;3,34458;756,7
25,74;3,35421;756,887
25,76;3,36441;757,056
25,78;3,37403;757,218
25,8;3,38393;757,363
25,82;3,39401;757,474
25,84;3,40346;757,597
25,86;3,41289;757,737
25,88;3,42305;757,878
25,9;3,43232;758,015
25,92;3,44198;758,176
25,94;3,45149;758,317
25,96;3,46079;758,458
25,98;3,47058;758,616
26;3,48041;758,774
26,02;3,49045;758,924
26,04;3,5002;759,077
26,06;3,51057;759,236
26,08;3,51996;759,381
26,1;3,52933;759,528
26,12;3,53938;759,659
26,14;3,54869;759,772
26,16;3,5583;759,903
26,18;3,56792;760,043
26,2;3,57771;760,188
26,22;3,58702;760,356
26,24;3,59711;760,537
26,26;3,60724;760,692
26,28;3,61673;760,832
26,3;3,62676;760,956
26,32;3,63681;761,078
26,34;3,64584;761,206
26,36;3,6559;761,325
26,38;3,6656;761,454
26,4;3,67477;761,593
26,42;3,68453;761,728
26,44;3,69404;761,854
26,46;3,70363;761,997
26,48;3,71346;762,139
26,5;3,72331;762,29
26,52;3,73304;762,447
26,54;3,74294;762,615
26,56;3,75241;762,752
26,58;3,76264;762,892
26,6;3,77168;763,023
26,62;3,78187;763,135
26,64;3,79163;763,247
26,66;3,80094;763,381
26,68;3,81088;763,504
26,7;3,82047;763,641
26,72;3,83009;763,79
26,74;3,83966;763,937
26,76;3,84958;764,086
26,78;3,85922;764,223
26,8;3,86909;764,353
26,82;3,87908;764,496
26,84;3,88864;764,627
26,86;3,89848;764,763
26,88;3,90827;764,905
26,9;3,91764;765,025
26,92;3,92717;765,127
26,94;3,93664;765,244
26,96;3,94643;765,363
26,98;3,95569;765,508
27;3,96587;765,666
27,02;3,97588;765,819
27,04;3,98552;765,965
27,06;3,99574;766,103
27,08;4,00569;766,229
27,1;4,01513;766,355
27,12;4,02539;766,486
27,14;4,03541;766,62
27,16;4,04487;766,77
27,18;4,05498;766,912
27,2;4,06499;767,059
27,22;4,07472;767,205
27,24;4,08469;767,342
27,26;4,09473;767,455
27,28;4,10495;767,56
27,3;4,11478;767,679
27,32;4,12479;767,807
27,34;4,13486;767,945
27,36;4,14441;768,084
27,38;4,15472;768,21
27,4;4,16458;768,323
27,42;4,17423;768,422
27,44;4,1839;768,526
27,46;4,19391;768,65
27,48;4,2035;768,803
27,5;4,21393;768,949
27,52;4,22394;769,093
27,54;4,2337;769,225
27,56;4,24367;769,344
27,58;4,25366;769,456
27,6;4,26324;769,578
27,62;4,27356;769,707
27,64;4,28333;769,836
27,66;4,29327;769,972
27,68;4,303;770,105
27,7;4,31302;770,23
27,72;4,32296;770,358
27,74;4,33274;770,479
27,76;4,34279;770,598
27,78;4,35288;770,718
27,8;4,36288;770,837
27,82;4,37288;770,96
27,84;4,38305;771,079
27,86;4,39287;771,193
27,88;4,40287;771,293
27,9;4,41269;771,398
27,92;4,42244;771,491
27,94;4,43224;771,616
27,96;4,44204;771,741
27,98;4,45217;771,89
28;4,46195;772,036
28,02;4,47212;772,177
28,04;4,48205;772,286
28,06;4,49241;772,398
28,08;4,50195;772,5
28,1;4,51212;772,617
28,12;4,52205;772,74
28,14;4,5321;772,871
28,16;4,54201;772,992
28,18;4,55214;773,118
28,2;4,56202;773,238
28,22;4,57223;773,357
28,24;4,58213;773,49
28,26;4,59282;773,636
28,28;4,60253;773,765
28,3;4,613;773,878
28,32;4,62275;773,999
28,34;4,63302;774,105
28,36;4,643;774,19
28,38;4,65312;774,276
28,4;4,66313;774,38
28,42;4,67293;774,483
28,44;4,68291;774,604
28,46;4,69287;774,744
28,48;4,7028;774,889
28,5;4,71324;775,004
28,52;4,72309;775,108
28,54;4,73338;775,192
28,56;4,74331;775,267
28,58;4,75351;775,362
28,6;4,76343;775,487
28,62;4,77374;775,609
28,64;4,78357;775,733
28,66;4,7939;775,855
28,68;4,80388;775,962
28,7;4,81432;776,071
28,72;4,82387;776,199
28,74;4,83458;776,34
28,76;4,84421;776,468
28,78;4,8544;776,603
28,8;4,86449;776,716
28,82;4,87465;776,797
28,84;4,88442;776,882
28,86;4,89485;776,971
28,88;4,90468;777,048
28,9;4,91469;777,143
28,92;4,92459;777,272
28,94;4,93452;777,394
28,96;4,94425;777,533
28,98;4,95473;777,681
29;4,96462;777,812
29,02;4,97484;777,914
29,04;4,98503;778,013
29,06;4,99501;778,107
29,08;5,0049;778,202
29,1;5,01516;778,307
29,12;5,02503;778,41
29,14;5,03501;778,519
29,16;5,04483;778,618
29,18;5,05509;778,715
29,2;5,06458;778,823
29,22;5,075;778,963
29,24;5,08491;779,098
29,26;5,09521;779,247
29,28;5,10511;779,363
29,3;5,11568;779,463
29,32;5,12522;779,546
29,34;5,13532;779,623
29,36;5,14524;779,687
29,38;5,15528;779,778
29,4;5,16495;779,879
29,42;5,17515;779,982
29,44;5,18472;780,103
29,46;5,19485;780,227
29,48;5,20476;780,34
29,5;5,21484;780,446
29,52;5,22502;780,555
29,54;5,2352;780,637
29,56;5,24496;780,733
29,58;5,25494;780,844
29,6;5,26472;780,946
29,62;5,27487;781,037
29,64;5,28447;781,133
29,66;5,2945;781,21
29,68;5,30435;781,297
29,7;5,3144;781,405
29,72;5,32415;781,533
29,74;5,3347;781,665
29,76;5,34429;781,794
29,78;5,35455;781,896
29,8;5,36478;781,987
29,82;5,37468;782,068
29,84;5,38481;782,153
29,86;5,39531;782,249
29,88;5,40509;782,353
29,9;5,41519;782,452
29,92;5,42495;782,562
29,94;5,43536;782,665
29,96;5,44512;782,768
29,98;5,45547;782,88
30;5,46567;782,988
30,02;5,47637;783,086
30,04;5,48635;783,194
30,06;5,49686;783,294
30,08;5,50679;783,382
30,1;5,51692;783,468
30,12;5,52692;783,551
30,14;5,5371;783,626
30,16;5,5471;783,718
30,18;5,55751;783,819
30,2;5,56757;783,927
30,22;5,57772;784,05
30,24;5,58796;784,169
30,26;5,59844;784,269
30,28;5,60864;784,363
30,3;5,61919;784,465
30,32;5,62939;784,549
30,34;5,63936;784,637
30,36;5,64994;784,719
30,38;5,66017;784,812
30,4;5,67005;784,891
30,42;5,68044;784,969
30,44;5,6905;785,053
30,46;5,70047;785,155
30,48;5,71085;785,264
30,5;5,72135;785,38
30,52;5,73156;785,51
30,54;5,74212;785,617
30,56;5,75202;785,703
30,58;5,76246;785,777
30,6;5,77253;785,853
30,62;5,78282;785,904
30,64;5,79268;785,985
30,66;5,80307;786,077
30,68;5,81298;786,174
30,7;5,82304;786,265
30,72;5,8334;786,373
30,74;5,84375;786,464
30,76;5,85378;786,553
30,78;5,86443;786,629
30,8;5,87461;786,71
30,82;5,8849;786,796
30,84;5,89509;786,892
30,86;5,90567;786,985
30,88;5,91544;787,068
30,9;5,92612;787,135
30,92;5,93575;787,207
30,94;5,94614;787,281
30,96;5,95609;787,376
30,98;5,96658;787,492
31;5,97695;787,614
31,02;5,98757;787,714
31,04;5,99784;787,796
31,06;6,00862;787,871
31,08;6,01831;787,94
31,1;6,02892;788,011
31,12;6,03889;788,08
31,14;6,0493;788,166
31,16;6,05909;788,249
31,18;6,06947;788,34
31,2;6,0793;788,426
31,22;6,08948;788,523
31,24;6,09984;788,613
31,26;6,10997;788,69
31,28;6,12032;788,754
31,3;6,1308;788,846
31,32;6,14067;788,942
31,34;6,15128;789,029
31,36;6,16136;789,127
31,38;6,17167;789,218
31,4;6,18172;789,288
31,42;6,19191;789,371
31,44;6,20216;789,464
31,46;6,21238;789,566
31,48;6,22273;789,686
31,5;6,23322;789,795
31,52;6,24371;789,882
31,54;6,25417;789,955
31,56;6,26428;790,012
31,58;6,27483;790,067
31,6;6,28491;790,141
31,62;6,29533;790,206
31,64;6,30525;790,307
31,66;6,31606;790,413
31,68;6,32576;790,494
31,7;6,3363;790,58
31,72;6,34665;790,68
31,74;6,35706;790,748
31,76;6,36729;790,821
31,78;6,37826;790,914
31,8;6,388;790,991
31,82;6,39865;791,067
31,84;6,40885;791,141
31,86;6,41898;791,204
31,88;6,42947;791,262
31,9;6,4396;791,321
31,92;6,4499;791,384
31,94;6,46008;791,472
31,96;6,4704;791,582
31,98;6,48121;791,698
32;6,49126;791,8
32,02;6,50181;791,885
32,04;6,51217;791,954
32,06;6,52251;792,008
32,08;6,53265;792,062
32,1;6,54285;792,144
32,12;6,55336;792,23
32,14;6,56347;792,326
32,16;6,57369;792,412
32,18;6,58419;792,495
32,2;6,59423;792,572
32,22;6,60441;792,67
32,24;6,61532;792,75
32,26;6,62543;792,839
32,28;6,63576;792,924
32,3;6,64632;793,009
32,32;6,65674;793,078
32,34;6,6667;793,147
32,36;6,6774;793,204
32,38;6,68764;793,27
32,4;6,69736;793,336
32,42;6,70797;793,416
32,44;6,71809;793,525
32,46;6,72832;793,644
32,48;6,73896;793,757
32,5;6,74938;793,835
32,52;6,75982;793,906
32,54;6,77029;793,951
32,56;6,78082;794
32,58;6,79091;794,056
32,6;6,80149;794,136
32,62;6,81205;794,213
32,64;6,82231;794,287
32,66;6,83297;794,36
32,68;6,84292;794,424
32,7;6,85326;794,499
32,72;6,8637;794,586
32,74;6,87414;794,672
32,76;6,88427;794,77
32,78;6,89506;794,855
32,8;6,90514;794,927
32,82;6,91566;794,988
32,84;6,92612;795,051
32,86;6,93631;795,089
32,88;6,94706;795,144
32,9;6,95711;795,219
32,92;6,96742;795,303
32,94;6,97811;795,392
32,96;6,9882;795,498
32,98;6,99887;795,596
33;7,0095;795,666
33,02;7,02016;795,718
33,04;7,03073;795,776
33,06;7,04106;795,83
33,08;7,05141;795,885
33,1;7,06201;795,952
33,12;7,07212;796,017
33,14;7,08283;796,069
33,16;7,09303;796,124
33,18;7,10332;796,185
33,2;7,11359;796,254
33,22;7,12405;796,342
33,24;7,13456;796,448
33,26;7,14519;796,542
33,28;7,15547;796,626
33,3;7,16639;796,691
33,32;7,17652;796,746
33,34;7,18708;796,783
33,36;7,19767;796,828
33,38;7,20811;796,881
33,4;7,21827;796,947
33,42;7,22897;797,023
33,44;7,23895;797,108
33,46;7,24986;797,196
33,48;7,26088;797,283
33,5;7,27134;797,372
33,52;7,28181;797,442
33,54;7,29263;797,509
33,56;7,30311;797,577
33,58;7,31349;797,64
33,6;7,32386;797,693
33,62;7,33447;797,738
33,64;7,34444;797,787
33,66;7,35523;797,834
33,68;7,36553;797,902
33,7;7,37609;797,982
33,72;7,38674;798,082
33,74;7,39756;798,176
33,76;7,40788;798,25
33,78;7,4188;798,304
33,8;7,42918;798,344
33,82;7,43979;798,397
33,84;7,45004;798,447
33,86;7,46066;798,507
33,88;7,47099;798,569
33,9;7,48143;798,641
33,92;7,49188;798,697
33,94;7,5022;798,76
33,96;7,51243;798,836
33,98;7,52335;798,924
34;7,53375;799,002
34,02;7,54437;799,076
34,04;7,5555;799,161
34,06;7,56571;799,241
34,08;7,57635;799,298
34,1;7,58722;799,346
34,12;7,59744;799,4
34,14;7,60829;799,429
34,16;7,61891;799,469
34,18;7,62928;799,524
34,2;7,63984;799,6
34,22;7,65076;799,682
34,24;7,66127;799,768
34,26;7,67214;799,83
34,28;7,6827;799,887
34,3;7,69389;799,943
34,32;7,70415;799,988
34,34;7,71498;800,043
34,36;7,72611;800,1
34,38;7,73617;800,163
34,4;7,74665;800,213
34,42;7,75746;800,263
34,44;7,76776;800,317
34,46;7,77849;800,386
34,48;7,78963;800,461
34,5;7,80009;800,542
34,52;7,81125;800,643
34,54;7,82202;800,722
34,56;7,83282;800,778
34,58;7,84343;800,83
34,6;7,85435;800,874
34,62;7,86522;800,901
34,64;7,87594;800,944
34,66;7,88659;800,996
34,68;7,89758;801,053
34,7;7,90821;801,117
34,72;7,91898;801,19
34,74;7,92987;801,247
34,76;7,94072;801,302
34,78;7,95163;801,344
34,8;7,96239;801,398
34,82;7,97328;801,452
34,84;7,98418;801,518
34,86;7,99486;801,582
34,88;8,0056;801,634
34,9;8,01619;801,673
34,92;8,02658;801,718
34,94;8,03718;801,767
34,96;8,04805;801,836
34,98;8,05879;801,923
35;8,06973;802,006
35,02;8,08095;802,063
35,04;8,09147;802,122
35,06;8,10261;802,162
35,08;8,11319;802,199
35,1;8,12406;802,231
35,12;8,13502;802,28
35,14;8,14563;802,33
35,16;8,15608;802,39
35,18;8,16724;802,453
35,2;8,1777;802,523
35,22;8,18826;802,582
35,24;8,19927;802,64
35,26;8,21007;802,681
35,28;8,221;802,726
35,3;8,23221;802,784
35,32;8,24245;802,849
35,34;8,25321;802,897
35,36;8,2645;802,952
35,38;8,2749;802,996
35,4;8,28553;803,034
35,42;8,2965;803,071
35,44;8,30678;803,134
35,46;8,31768;803,218
35,48;8,32885;803,302
35,5;8,33967;803,374
35,52;8,35101;803,441
35,54;8,36176;803,485
35,56;8,37237;803,516
35,58;8,38342;803,564
35,6;8,39395;803,611
35,62;8,40515;803,659
35,64;8,41587;803,734
35,66;8,42651;803,8
35,68;8,43732;803,841
35,7;8,44837;803,899
35,72;8,45928;803,959
35,74;8,47029;803,999
35,76;8,48128;804,047
35,78;8,4925;804,098
35,8;8,50305;804,138
35,82;8,51449;804,186
35,84;8,52537;804,234
35,86;8,53637;804,267
35,88;8,54696;804,3
35,9;8,55783;804,335
35,92;8,56861;804,371
35,94;8,57959;804,425
35,96;8,59049;804,507
35,98;8,60153;804,599
36;8,61275;804,677
36,02;8,62376;804,726
36,04;8,63511;804,757
36,06;8,64612;804,777
36,08;8,65676;804,801
36,1;8,66822;804,84
36,12;8,67916;804,894
36,14;8,68983;804,946
36,16;8,70095;804,986
36,18;8,71205;805,036
36,2;8,72292;805,089
36,22;8,73374;805,147
36,24;8,74525;805,215
36,26;8,75605;805,287
36,28;8,76733;805,341
36,3;8,77846;805,38
36,32;8,78959;805,419
36,34;8,80038;805,437
36,36;8,81187;805,451
36,38;8,82281;805,474
36,4;8,83364;805,512
36,42;8,84465;805,567
36,44;8,85559;805,648
36,46;8,86649;805,726
36,48;8,87777;805,788
36,5;8,88913;805,84
36,52;8,90002;805,862
36,54;8,91108;805,87
36,56;8,92239;805,896
36,58;8,93325;805,935
36,6;8,9448;805,973
36,62;8,9562;806,023
36,64;8,96672;806,075
36,66;8,97835;806,124
36,68;8,98965;806,171
36,7;9,00041;806,233
36,72;9,0118;806,297
36,74;9,02256;806,36
36,76;9,03382;806,41
36,78;9,04537;806,459
36,8;9,05568;806,484
36,82;9,06729;806,499
36,84;9,07862;806,513
36,86;9,08937;806,535
36,88;9,10072;806,559
36,9;9,11167;806,618
36,92;9,12307;806,673
36,94;9,13387;806,745
36,96;9,14504;806,817
36,98;9,15629;806,876
37;9,16745;806,91
37,02;9,17873;806,955
37,04;9,19012;806,991
37,06;9,20076;807,02
37,08;9,21198;807,061
37,1;9,22344;807,096
37,12;9,23421;807,125
37,14;9,24517;807,145
37,16;9,25666;807,179
37,18;9,26735;807,219
37,2;9,27884;807,281
37,22;9,29028;807,366
37,24;9,30144;807,452
37,26;9,31287;807,521
37,28;9,32427;807,563
37,3;9,33525;807,588
37,32;9,34655;807,586
37,34;9,3575;807,588
37,36;9,36872;807,595
37,38;9,37988;807,62
37,4;9,39066;807,655
37,42;9,40203;807,697
37,44;9,41321;807,753
37,46;9,42428;807,811
37,48;9,43575;807,859
37,5;9,4471;807,903
37,52;9,4582;807,949
37,54;9,46947;807,973
37,56;9,48037;808,006
37,58;9,4914;808,036
37,6;9,50264;808,06
37,62;9,51397;808,081
37,64;9,52466;808,11
37,66;9,53611;808,129
37,68;9,54727;808,178
37,7;9,55814;808,243
37,72;9,56963;808,309
37,74;9,58102;808,367
37,76;9,592;808,423
37,78;9,60353;808,455
37,8;9,61481;808,471
37,82;9,6258;808,502
37,84;9,63739;808,523
37,86;9,6487;808,551
37,88;9,6596;808,583
37,9;9,67081;808,614
37,92;9,68195;808,647
37,94;9,69291;808,687
37,96;9,70452;808,74
37,98;9,71578;808,783
38;9,72686;808,828
38,02;9,7384;808,86
38,04;9,74954;808,907
38,06;9,7605;808,933
38,08;9,77208;808,965
38,1;9,7831;808,981
38,12;9,79423;808,998
38,14;9,80554;809,01
38,16;9,81651;809,033
38,18;9,82793;809,07
38,2;9,83879;809,122
38,22;9,85017;809,181
38,24;9,86155;809,231
38,26;9,87299;809,267
38,28;9,8843;809,297
38,3;9,896;809,342
38,32;9,9072;809,364
38,34;9,91861;809,391
38,36;9,93005;809,423
38,38;9,94161;809,456
38,4;9,95265;809,472
38,42;9,96393;809,51
38,44;9,9757;809,552
38,46;9,9869;809,616
38,48;9,99856;809,671
38,5;10,0103;809,725
38,52;10,0217;809,766
38,54;10,0332;809,801
38,56;10,0444;809,818
38,58;10,0556;809,842
38,6;10,0675;809,849
38,62;10,0788;809,864
38,64;10,09;809,889
38,66;10,1016;809,911
38,68;10,1128;809,943
38,7;10,1243;810,008
38,72;10,136;810,062
38,74;10,1477;810,097
38,76;10,1587;810,119
38,78;10,1709;810,149
38,8;10,1821;810,162
38,82;10,1937;810,19
38,84;10,2053;810,227
38,86;10,2166;810,268
38,88;10,228;810,279
38,9;10,2392;810,293
38,92;10,2508;810,293
38,94;10,2623;810,314
38,96;10,2738;810,35
38,98;10,2852;810,389
39;10,297;810,424
39,02;10,3083;810,46
39,04;10,32;810,479
39,06;10,3315;810,486
39,08;10,3427;810,487
39,1;10,3545;810,491
39,12;10,3658;810,518
39,14;10,3771;810,548
39,16;10,3887;810,584
39,18;10,3998;810,636
39,2;10,4113;810,685
39,22;10,4227;810,722
39,24;10,4343;810,743
39,26;10,4456;810,765
39,28;10,4575;810,784
39,3;10,4687;810,833
39,32;10,4799;810,859
39,34;10,4921;810,893
39,36;10,5033;810,916
39,38;10,5148;810,94
39,4;10,5264;810,95
39,42;10,5378;810,987
39,44;10,5495;811,038
39,46;10,5613;811,099
39,48;10,5731;811,139
39,5;10,5848;811,17
39,52;10,5965;811,177
39,54;10,6082;811,18
39,56;10,6197;811,188
39,58;10,6312;811,203
39,6;10,643;811,231
39,62;10,6544;811,269
39,64;10,666;811,295
39,66;10,6779;811,317
39,68;10,6891;811,343
39,7;10,7009;811,366
39,72;10,7126;811,387
39,74;10,7245;811,423
39,76;10,736;811,457
39,78;10,7478;811,493
39,8;10,7597;811,516
39,82;10,7712;811,54
39,84;10,7831;811,543
39,86;10,7949;811,543
39,88;10,8066;811,543
39,9;10,8182;811,571
39,92;10,83;811,607
39,94;10,8417;811,663
39,96;10,8538;811,731
39,98;10,8657;811,79
40;10,8777;811,804
40,02;10,8895;811,807
40,04;10,9013;811,791
40,06;10,9132;811,786
40,08;10,9248;811,794
40,1;10,9368;811,818
40,12;10,9487;811,844
40,14;10,9603;811,874
40,16;10,9721;811,889
40,18;10,9837;811,903
40,2;10,9952;811,93
40,22;11,0074;811,959
40,24;11,0188;811,983
40,26;11,0308;812,009
40,28;11,0424;812,028
40,3;11,0546;812,039
40,32;11,0661;812,048
40,34;11,078;812,057
40,36;11,0899;812,062
40,38;11,101;812,072
40,4;11,113;812,09
40,42;11,1246;812,137
40,44;11,1364;812,199
40,46;11,1484;812,261
40,48;11,1605;812,294
40,5;11,1725;812,316
40,52;11,1845;812,307
40,54;11,1966;812,301
40,56;11,2085;812,306
40,58;11,2202;812,326
40,6;11,2324;812,348
40,62;11,2443;812,374
40,64;11,2563;812,383
40,66;11,268;812,38
40,68;11,28;812,405
40,7;11,2918;812,448
40,72;11,3041;812,486
40,74;11,316;812,534
40,76;11,3281;812,574
40,78;11,3401;812,584
40,8;11,3518;812,581
40,82;11,3639;812,573
40,84;11,3758;812,556
40,86;11,3879;812,556
40,88;11,3997;812,561
40,9;11,4114;812,579
40,92;11,4233;812,606
40,94;11,4354;812,653
40,96;11,4475;812,699
40,98;11,46;812,742
41;11,4717;812,762
41,02;11,4838;812,786
41,04;11,496;812,8
41,06;11,5078;812,807
41,08;11,5197;812,812
41,1;11,5321;812,821
41,12;11,5437;812,815
41,14;11,5557;812,809
41,16;11,5676;812,805
41,18;11,5794;812,828
41,2;11,5914;812,864
41,22;11,6034;812,921
41,24;11,6156;812,964
41,26;11,6275;812,994
41,28;11,6396;813,008
41,3;11,6519;813,007
41,32;11,6634;812,994
41,34;11,6757;812,991
41,36;11,6878;812,992
41,38;11,6993;812,995
41,4;11,7114;813,02
41,42;11,7235;813,045
41,44;11,7351;813,07
41,46;11,7475;813,111
41,48;11,7599;813,134
41,5;11,7719;813,141
41,52;11,7841;813,153
41,54;11,7964;813,17
41,56;11,8083;813,171
41,58;11,8203;813,171
41,6;11,8325;813,167
41,62;11,8445;813,155
41,64;11,8562;813,139
41,66;11,8681;813,137
41,68;11,8805;813,164
41,7;11,8923;813,214
41,72;11,9047;813,253
41,74;11,9172;813,28
41,76;11,9292;813,296
41,78;11,9414;813,288
41,8;11,9537;813,276
41,82;11,9658;813,274
41,84;11,9776;813,274
41,86;11,9897;813,282
41,88;12,002;813,303
41,9;12,0134;813,312
41,92;12,0258;813,326
41,94;12,0381;813,365
41,96;12,0499;813,408
41,98;12,0625;813,438
42;12,0746;813,466
42,02;12,087;813,496
42,04;12,099;813,503
42,06;12,1113;813,503
42,08;12,1235;813,487
42,1;12,1356;813,478
42,12;12,148;813,469
42,14;12,1602;813,47
42,16;12,1724;813,478
42,18;12,1847;813,516
42,2;12,1969;813,539
42,22;12,2094;813,566
42,24;12,222;813,578
42,26;12,2344;813,573
42,28;12,2468;813,573
42,3;12,2594;813,577
42,32;12,2719;813,572
42,34;12,2844;813,584
42,36;12,2968;813,597
42,38;12,3092;813,6
42,4;12,3213;813,603
42,42;12,3335;813,611
42,44;12,3457;813,616
42,46;12,3586;813,647
42,48;12,3708;813,676
42,5;12,3833;813,711
42,52;12,3958;813,733
42,54;12,4085;813,746
42,56;12,4206;813,743
42,58;12,4332;813,731
42,6;12,4457;813,711
42,62;12,4582;813,704
42,64;12,4706;813,7
42,66;12,4829;813,706
42,68;12,4956;813,728
42,7;12,5078;813,76
42,72;12,5205;813,78
42,74;12,533;813,8
42,76;12,5457;813,803
42,78;12,5582;813,808
42,8;12,5707;813,809
42,82;12,5834;813,814
42,84;12,5958;813,81
42,86;12,6079;813,804
42,88;12,6204;813,775
42,9;12,6327;813,751
42,92;12,6449;813,739
42,94;12,6576;813,762
42,96;12,6702;813,79
42,98;12,6831;813,822
43;12,6955;813,845
43,02;12,7083;813,856
43,04;12,7208;813,836
43,06;12,7329;813,821
43,08;12,7456;813,813
43,1;12,7583;813,812
43,12;12,7706;813,812
43,14;12,7833;813,836
43,16;12,7954;813,848
43,18;12,8082;813,865
43,2;12,8204;813,868
43,22;12,8334;813,87
43,24;12,8459;813,848
43,26;12,8584;813,839
43,28;12,8717;813,843
43,3;12,8836;813,857
43,32;12,8963;813,858
43,34;12,9092;813,86
43,36;12,9215;813,853
43,38;12,934;813,827
43,4;12,9465;813,812
43,42;12,959;813,826
43,44;12,9714;813,866
43,46;12,9841;813,904
43,48;12,9968;813,937
43,5;13,0098;813,948
43,52;13,0222;813,929
43,54;13,0348;813,899
43,56;13,0475;813,876
43,58;13,0598;813,866
43,6;13,0728;813,866
43,62;13,0851;813,891
43,64;13,0975;813,908
43,66;13,1103;813,913
43,68;13,1225;813,923
43,7;13,1352;813,932
43,72;13,1481;813,923
43,74;13,1607;813,917
43,76;13,1738;813,915
43,78;13,1863;813,914
43,8;13,1994;813,91
43,82;13,2123;813,897
43,84;13,2255;813,872
43,86;13,2378;813,851
43,88;13,2504;813,822
43,9;13,263;813,816
43,92;13,2755;813,825
43,94;13,2884;813,858
43,96;13,3012;813,895
43,98;13,3142;813,916
44;13,3269;813,9
44,02;13,3399;813,887
44,04;13,3527;813,858
44,06;13,3653;813,835
44,08;13,3784;813,828
44,1;13,3909;813,841
44,12;13,4042;813,848
44,14;13,4168;813,858
44,16;13,4297;813,861
44,18;13,4431;813,871
44,2;13,4558;813,871
44,22;13,4688;813,886
44,24;13,482;813,892
44,26;13,495;813,901
44,28;13,5082;813,896
44,3;13,5212;813,893
44,32;13,5342;813,857
44,34;13,5473;813,821
44,36;13,56;813,784
44,38;13,5728;813,753
44,4;13,5858;813,739
44,42;13,5984;813,758
44,44;13,6112;813,78
44,46;13,6243;813,779
44,48;13,6372;813,772
44,5;13,6502;813,741
44,52;13,6629;813,705
44,54;13,6755;813,68
44,56;13,6884;813,679
44,58;13,7014;813,68
44,6;13,7142;813,689
44,62;13,727;813,696
44,64;13,7399;813,696
44,66;13,7529;813,693
44,68;13,7656;813,698
44,7;13,7789;813,71
44,72;13,7922;813,714
44,74;13,805;813,717
44,76;13,8181;813,712
44,78;13,8312;813,683
44,8;13,8442;813,648
44,82;13,8566;813,612
44,84;13,8701;813,567
44,86;13,8827;813,531
44,88;13,8956;813,528
44,9;13,9086;813,534
44,92;13,9216;813,542
44,94;13,9346;813,557
44,96;13,9478;813,565
44,98;13,9609;813,551
45;13,9741;813,522
45,02;13,9871;813,501
45,04;14,0001;813,477
45,06;14,013;813,465
45,08;14,0261;813,444
45,1;14,0391;813,435
45,12;14,0521;813,411
45,14;14,0653;813,4
45,16;14,0781;813,386
45,18;14,0917;813,397
45,2;14,1045;813,42
45,22;14,1179;813,446
45,24;14,1312;813,448
45,26;14,1444;813,436
45,28;14,1577;813,409
45,3;14,1709;813,368
45,32;14,1839;813,325
45,34;14,1975;813,295
45,36;14,2104;813,275
45,38;14,2235;813,263
45,4;14,2367;813,26
45,42;14,2497;813,267
45,44;14,2632;813,268
45,46;14,2767;813,271
45,48;14,2899;813,259
45,5;14,3033;813,233
45,52;14,3169;813,206
45,54;14,3296;813,185
45,56;14,343;813,157
45,58;14,356;813,123
45,6;14,3692;813,083
45,62;14,3823;813,046
45,64;14,3955;813,021
45,66;14,4087;813,013
45,68;14,422;813,02
45,7;14,4351;813,038
45,72;14,4486;813,041
45,74;14,4618;813,025
45,76;14,4752;812,988
45,78;14,4887;812,947
45,8;14,5017;812,904
45,82;14,5153;812,874
45,84;14,5285;812,846
45,86;14,5414;812,827
45,88;14,5549;812,803
45,9;14,5678;812,787
45,92;14,5809;812,764
45,94;14,5942;812,761
45,96;14,6075;812,748
45,98;14,6213;812,731
46;14,6346;812,711
46,02;14,6481;812,692
46,04;14,661;812,654
46,06;14,6743;812,617
46,08;14,6876;812,576
46,1;14,7008;812,533
46,12;14,7142;812,491
46,14;14,7271;812,467
46,16;14,7406;812,45
46,18;14,7538;812,453
46,2;14,7671;812,457
46,22;14,7809;812,455
46,24;14,7942;812,442
46,26;14,8082;812,416
46,28;14,8215;812,388
46,3;14,835;812,365
46,32;14,8487;812,332
46,34;14,8623;812,29
46,36;14,8756;812,254
46,38;14,8891;812,211
46,4;14,9026;812,161
46,42;14,9161;812,134
46,44;14,9297;812,113
46,46;14,9433;812,101
46,48;14,9568;812,095
46,5;14,9706;812,094
46,52;14,984;812,059
46,54;14,9976;812,026
46,56;15,011;811,98
46,58;15,0246;811,925
46,6;15,0379;811,86
46,62;15,0514;811,826
46,64;15,0648;811,794
46,66;15,0783;811,777
46,68;15,0918;811,77
46,7;15,1055;811,777
46,72;15,1194;811,757
46,74;15,133;811,726
46,76;15,1471;811,696
46,78;15,1608;811,667
46,8;15,1742;811,628
46,82;15,1885;811,599
46,84;15,2018;811,562
46,86;15,2155;811,509
46,88;15,2289;811,439
46,9;15,2425;811,385
46,92;15,2561;811,35
46,94;15,2701;811,326
46,96;15,284;811,305
46,98;15,2981;811,291
47;15,3117;811,254
47,02;15,3257;811,204
47,04;15,3396;811,147
47,06;15,3532;811,09
47,08;15,3671;811,026
47,1;15,3809;810,977
47,12;15,3944;810,93
47,14;15,4085;810,899
47,16;15,4221;810,867
47,18;15,436;810,828
47,2;15,45;810,783
47,22;15,4639;810,732
47,24;15,4777;810,667
47,26;15,4917;810,613
47,28;15,5056;810,579
47,3;15,5194;810,533
47,32;15,5334;810,479
47,34;15,5475;810,427
47,36;15,5611;810,365
47,38;15,5753;810,304
47,4;15,5891;810,256
47,42;15,6032;810,24
47,44;15,6173;810,222
47,46;15,6319;810,192
47,48;15,6459;810,15
47,5;15,6603;810,091
47,52;15,6743;810,003
47,54;15,6885;809,924
47,56;15,7026;809,861
47,58;15,717;809,789
47,6;15,7314;809,736
47,62;15,7454;809,688
47,64;15,7594;809,627
47,66;15,7736;809,558
47,68;15,7875;809,505
47,7;15,8016;809,437
47,72;15,8158;809,355
47,74;15,8302;809,285
47,76;15,8442;809,206
47,78;15,8586;809,135
47,8;15,8728;809,064
47,82;15,8872;808,989
47,84;15,9015;808,904
47,86;15,9152;808,832
47,88;15,9295;808,758
47,9;15,9432;808,695
47,92;15,9573;808,658
47,94;15,9719;808,634
47,96;15,9859;808,589
47,98;16,0004;808,514
48;16,0149;808,416
48,02;16,029;808,313
48,04;16,043;808,199
48,06;16,0575;808,101
48,08;16,0713;808,014
48,1;16,0857;807,937
48,12;16,0998;807,843
48,14;16,114;807,762
48,16;16,1283;807,683
48,18;16,1419;807,614
48,2;16,1567;807,543
48,22;16,171;807,476
48,24;16,1852;807,403
48,26;16,1998;807,311
48,28;16,2139;807,21
48,3;16,2281;807,114
48,32;16,2428;806,996
48,34;16,2569;806,876
48,36;16,2708;806,771
48,38;16,2853;806,683
48,4;16,2994;806,61
48,42;16,3138;806,558
48,44;16,3285;806,494
48,46;16,3433;806,405
48,48;16,3575;806,272
48,5;16,3723;806,125
48,52;16,3868;805,987
48,54;16,4009;805,852
48,56;16,4155;805,734
48,58;16,4299;805,639
48,6;16,4442;805,525
48,62;16,4589;805,407
48,64;16,4732;805,293
48,66;16,4878;805,174
48,68;16,5022;805,059
48,7;16,5168;804,963
48,72;16,5313;804,852
48,74;16,5461;804,74
48,76;16,5605;804,627
48,78;16,575;804,505
48,8;16,5894;804,358
48,82;16,6038;804,222
48,84;16,6182;804,078
48,86;16,6326;803,942
48,88;16,6467;803,832
48,9;16,6615;803,735
48,92;16,6758;803,635
48,94;16,6908;803,539
48,96;16,7056;803,424
48,98;16,7205;803,276
49;16,7356;803,13
49,02;16,7501;802,973
49,04;16,7648;802,805
49,06;16,7797;802,646
49,08;16,7944;802,468
49,1;16,8094;802,292
49,12;16,8237;802,11
49,14;16,8385;801,946
49,16;16,8531;801,79
49,18;16,8678;801,659
49,2;16,8827;801,533
49,22;16,8977;801,402
49,24;16,9122;801,228
49,26;16,9272;801,042
49,28;16,9419;800,851
49,3;16,9562;800,644
49,32;16,9716;800,428
49,34;16,9861;800,24
49,36;17,0007;800,058
49,38;17,0156;799,872
49,4;17,0301;799,696
49,42;17,045;799,538
49,44;17,06;799,379
49,46;17,0752;799,199
49,48;17,09;799,011
49,5;17,1054;798,812
49,52;17,1201;798,604
49,54;17,1353;798,405
49,56;17,15;798,202
49,58;17,1649;797,968
49,6;17,1802;797,733
49,62;17,1945;797,504
49,64;17,2094;797,262
49,66;17,2244;797,058
49,68;17,2386;796,887
49,7;17,2539;796,713
49,72;17,2686;796,508
49,74;17,2836;796,285
49,76;17,2989;796,025
49,78;17,3137;795,764
49,8;17,3283;795,509
49,82;17,3433;795,268
49,84;17,3581;795,028
49,86;17,3728;794,794
49,88;17,3874;794,547
49,9;17,4021;794,298
49,92;17,4166;794,061
49,94;17,4317;793,82
49,96;17,4468;793,573
49,98;17,4615;793,324
50;17,4769;793,062
50,02;17,4916;792,781
50,04;17,5065;792,49
50,06;17,5215;792,18
50,08;17,5363;791,857
50,1;17,5513;791,527
50,12;17,5663;791,206
50,14;17,5809;790,895
50,16;17,5959;790,613
50,18;17,6111;790,336
50,2;17,626;790,053
50,22;17,6414;789,736
50,24;17,6566;789,397
50,26;17,6723;789,036
50,28;17,6871;788,672
50,3;17,7024;788,289
50,32;17,7175;787,915
50,34;17,7326;787,547
50,36;17,7476;787,173
50,38;17,7625;786,8
50,4;17,7775;786,433
50,42;17,793;786,064
50,44;17,8083;785,688
50,46;17,8238;785,277
50,48;17,8395;784,841
50,5;17,8549;784,36
50,52;17,8704;783,847
50,54;17,8856;783,297
50,56;17,9012;782,716
50,58;17,9169;782,092
50,6;17,9327;781,437
50,62;17,9482;780,75
50,64;17,9642;780,011
50,66;17,9797;779,184
50,68;17,9959;778,221
50,7;18,0129;777,145
50,72;18,03;775,919
50,74;18,0469;774,531
50,76;18,064;772,878
50,78;18,0816;770,751
50,8;18,1009;767,774
50,82;18,1228;747,071
