"s";"%";"MPa"
0;0;5,62055
0,02;-0,000419179;5,61495
0,04;-0,0020745;5,61658
0,06;-0,00353193;5,61544
0,08;-0,00432316;5,61208
0,1;-0,00452974;5,60756
0,12;-0,00391234;5,60793
0,14;-0,00191204;5,59886
0,16;-0,000454946;5,59754
0,18;0,000184185;5,60089
0,2;0,000227306;5,60582
0,22;-5,31495e-005;5,60852
0,24;-0,00157343;5,61769
0,26;-0,00285704;5,62129
0,28;-0,00414934;5,62071
0,3;-0,00429441;5,62592
0,32;-0,00380938;5,6263
0,34;-0,00240543;5,62415
0,36;-0,00122712;5,62643
0,38;0,000363021;5,62233
0,4;0,000343299;5,61685
0,42;3,81072e-005;5,61661
0,44;-0,00121976;5,61907
0,46;-0,00258962;5,62524
0,48;-0,00366464;5,65111
0,5;-0,00415101;5,67632
0,52;-0,00386721;5,71601
0,54;-0,00256488;5,76917
0,56;-0,00097541;5,84318
0,58;0,000478011;5,9231
0,6;0,000489376;6,03716
0,62;0,000557568;6,18058
0,64;-0,000208252;6,33341
0,66;-0,00150055;6,50105
0,68;-0,0026431;6,68419
0,7;-0,00287609;6,87257
0,72;-0,00288812;7,0552
0,74;-0,00163493;7,25171
0,76;1,06968e-005;7,46501
0,78;0,00138623;7,69508
0,8;0,00220721;7,95126
0,82;0,00233724;8,22978
0,84;0,00124918;8,5271
0,86;0,000726376;8,8278
0,88;-0,000528486;9,15521
0,9;-0,000963042;9,47658
0,92;-0,00086744;9,8111
0,94;0,000467314;10,1638
0,96;0,00185555;10,538
0,98;0,00389228;10,9183
1;0,00483159;11,3248
1,02;0,00485699;11,7472
1,04;0,00457921;12,1821
1,06;0,00393707;12,625
1,08;0,00277614;13,0872
1,1;0,00240343;13,5577
1,12;0,0024636;14,0324
1,14;0,00348948;14,5102
1,16;0,00466245;14,9971
1,18;0,00678675;15,4814
1,2;0,00798713;15,9609
1,22;0,00820073;16,4511
1,24;0,00821377;16,9426
1,26;0,00773475;17,4385
1,28;0,00650362;17,9331
1,3;0,00643978;18,4328
1,32;0,00622551;18,9326
1,34;0,00723435;19,4428
1,36;0,00878504;19,9422
1,38;0,0106205;20,4345
1,4;0,0113132;20,9357
1,42;0,0123427;21,4419
1,44;0,0121244;21,9364
1,46;0,0117952;22,4339
1,48;0,0109361;22,9448
1,5;0,0104019;23,4548
1,52;0,0101626;23,9617
1,54;0,0105737;24,4689
1,56;0,0120967;24,9828
1,58;0,0133038;25,4888
1,6;0,0148585;26,0022
1,62;0,0160772;26,5059
1,64;0,0158683;27,0195
1,66;0,0158242;27,5279
1,68;0,0149704;28,0394
1,7;0,0142648;28,5441
1,72;0,0142404;29,0375
1,74;0,014701;29,5335
1,76;0,0155922;30,0372
1,78;0,0171536;30,535
1,8;0,0189403;31,0188
1,82;0,0196158;31,5132
1,84;0,0197599;32,0071
1,86;0,0197442;32,4987
1,88;0,0188336;32,9977
1,9;0,0185746;33,5029
1,92;0,018265;34,0156
1,94;0,0184796;34,5179
1,96;0,0191622;35,0117
1,98;0,0209767;35,5175
2;0,0221175;36,0188
2,02;0,0233804;36,5143
2,04;0,0236385;37,0059
2,06;0,0236348;37,504
2,08;0,0231113;37,9807
2,1;0,0228055;38,4703
2,12;0,022146;38,9655
2,14;0,0224358;39,4665
2,16;0,0234593;39,95
2,18;0,0250538;40,4395
2,2;0,0256431;40,9323
2,22;0,0273345;41,4165
2,24;0,0274435;41,8932
2,26;0,0274258;42,3839
2,28;0,0273138;42,8849
2,3;0,0268408;43,3683
2,32;0,0260239;43,8612
2,34;0,026419;44,3627
2,36;0,0267078;44,8506
2,38;0,0280168;45,3222
2,4;0,0298058;45,8082
2,42;0,030357;46,2834
2,44;0,0311272;46,7604
2,46;0,0316015;47,2445
2,48;0,0310299;47,7393
2,5;0,0304527;48,2304
2,52;0,0300191;48,7126
2,54;0,0301087;49,1914
2,56;0,0303026;49,6788
2,58;0,0316898;50,1457
2,6;0,0329791;50,615
2,62;0,0339054;51,0999
2,64;0,0345682;51,5909
2,66;0,035212;52,0708
2,68;0,0349309;52,5634
2,7;0,0344833;53,0429
2,72;0,0338673;53,5262
2,74;0,0337345;54,0027
2,76;0,0338034;54,4871
2,78;0,0352756;54,9776
2,8;0,0360193;55,4678
2,82;0,0375994;55,9523
2,84;0,0383405;56,4422
2,86;0,038534;56,9353
2,88;0,0384966;57,4157
2,9;0,0383027;57,8999
2,92;0,0377839;58,3841
2,94;0,0373875;58,856
2,96;0,0375784;59,3266
2,98;0,03862;59,8062
3;0,0399507;60,2918
3,02;0,0409599;60,7642
3,04;0,041838;61,2458
3,06;0,0420947;61,7146
3,08;0,0420911;62,1874
3,1;0,0420232;62,6593
3,12;0,0416889;63,1442
3,14;0,0414977;63,6233
3,16;0,0415001;64,111
3,18;0,0418978;64,5878
3,2;0,043481;65,0635
3,22;0,0444226;65,531
3,24;0,0452158;65,9954
3,26;0,0459793;66,47
3,28;0,0459817;66,9369
3,3;0,0458954;67,3935
3,32;0,0454281;67,8675
3,34;0,0453178;68,3376
3,36;0,0452055;68,7959
3,38;0,0456163;69,2581
3,4;0,0465673;69,7292
3,42;0,0478238;70,1754
3,44;0,0489059;70,6317
3,46;0,0493859;71,0891
3,48;0,0493999;71,5554
3,5;0,0495554;72,004
3,52;0,0492154;72,4632
3,54;0,0490202;72,9188
3,56;0,0488838;73,3735
3,58;0,0492114;73,8189
3,6;0,0497964;74,2743
3,62;0,0512144;74,7198
3,64;0,0525846;75,1654
3,66;0,0528306;75,6038
3,68;0,0528517;76,0521
3,7;0,0534507;76,5072
3,72;0,0530539;76,9707
3,74;0,0526658;77,4298
3,76;0,0526424;77,8845
3,78;0,0527236;78,3364
3,8;0,0531846;78,7863
3,82;0,0548787;79,2362
3,84;0,0556773;79,6816
3,86;0,0564418;80,137
3,88;0,0567399;80,5928
3,9;0,0568041;81,0498
3,92;0,0566467;81,5027
3,94;0,056528;81,9567
3,96;0,0563582;82,4107
3,98;0,0563883;82,8639
4;0,0566597;83,312
4,02;0,0580312;83,7566
4,04;0,0588943;84,2207
4,06;0,0598834;84,6785
4,08;0,0604891;85,1324
4,1;0,0605313;85,5782
4,12;0,0604407;86,0226
4,14;0,0604139;86,4591
4,16;0,0597912;86,9033
4,18;0,0598808;87,3521
4,2;0,0605924;87,8024
4,22;0,0614585;88,2616
4,24;0,062326;88,707
4,26;0,0634201;89,1488
4,28;0,0636698;89,5758
4,3;0,0639271;90,0193
4,32;0,063891;90,461
4,34;0,0638432;90,9037
4,36;0,0637289;91,3424
4,38;0,063744;91,7846
4,4;0,0638352;92,2212
4,42;0,0645435;92,6575
4,44;0,0653421;93,1043
4,46;0,0666735;93,5367
4,48;0,0670991;93,988
4,5;0,0676058;94,4299
4,52;0,0675096;94,8709
4,54;0,0674491;95,299
4,56;0,0673444;95,7367
4,58;0,0673087;96,1634
4,6;0,0673722;96,6037
4,62;0,0681728;97,0436
4,64;0,0690522;97,4753
4,66;0,0699935;97,9065
4,68;0,0708453;98,3333
4,7;0,0710843;98,752
4,72;0,0710712;99,1654
4,74;0,0710385;99,5914
4,76;0,0709415;100,027
4,78;0,0709215;100,463
4,8;0,0709292;100,896
4,82;0,0716933;101,324
4,84;0,0724521;101,763
4,86;0,0733343;102,203
4,88;0,0745139;102,623
4,9;0,0745774;103,048
4,92;0,0745443;103,483
4,94;0,0746951;103,921
4,96;0,0745092;104,339
4,98;0,0745052;104,774
5;0,0746125;105,209
5,02;0,0750036;105,642
5,04;0,0756291;106,053
5,06;0,077026;106,475
5,08;0,0772115;106,901
5,1;0,0781906;107,322
5,12;0,0782364;107,752
5,14;0,0781839;108,195
5,16;0,0781425;108,642
5,18;0,0781324;109,074
5,2;0,0781421;109,503
5,22;0,0783096;109,929
5,24;0,0791657;110,331
5,26;0,0801414;110,743
5,28;0,0807996;111,162
5,3;0,0816704;111,583
5,32;0,0817386;111,987
5,34;0,081756;112,402
5,36;0,081754;112,816
5,38;0,0816453;113,217
5,4;0,0816169;113,631
5,42;0,0822009;114,051
5,44;0,0823934;114,484
5,46;0,083301;114,898
5,48;0,0845074;115,325
5,5;0,084745;115,751
5,52;0,0849399;116,181
5,54;0,0857719;116,597
5,56;0,0853133;117,033
5,58;0,0852856;117,477
5,6;0,0852752;117,902
5,62;0,0853711;118,332
5,64;0,0856997;118,76
5,66;0,0872066;119,179
5,68;0,0874684;119,594
5,7;0,0884869;120,019
5,72;0,088512;120,43
5,74;0,0890211;120,85
5,76;0,0889074;121,271
5,78;0,088884;121,69
5,8;0,0888519;122,103
5,82;0,0889308;122,529
5,84;0,0892347;122,948
5,86;0,0905989;123,361
5,88;0,0910625;123,775
5,9;0,0914827;124,189
5,92;0,0920693;124,595
5,94;0,0922281;125,011
5,96;0,0921703;125,42
5,98;0,0922154;125,824
6;0,0921683;126,226
6,02;0,0922004;126,636
6,04;0,0928378;127,038
6,06;0,093841;127,445
6,08;0,0944393;127,856
6,1;0,0949584;128,265
6,12;0,095612;128,662
6,14;0,0957874;129,063
6,16;0,0957436;129,469
6,18;0,0960295;129,872
6,2;0,0956808;130,277
6,22;0,0957276;130,682
6,24;0,0961284;131,087
6,26;0,0966078;131,482
6,28;0,0974384;131,876
6,3;0,0982654;132,263
6,32;0,0983904;132,657
6,34;0,0990851;133,054
6,36;0,0990673;133,453
6,38;0,0991138;133,848
6,4;0,0990607;134,253
6,42;0,0990851;134,651
6,44;0,0992218;135,033
6,46;0,100493;135,425
6,48;0,100764;135,823
6,5;0,101848;136,219
6,52;0,102228;136,608
6,54;0,102433;137
6,56;0,102418;137,387
6,58;0,102656;137,782
6,6;0,102535;138,17
6,62;0,10255;138,564
6,64;0,102558;138,962
6,66;0,103502;139,358
6,68;0,103716;139,744
6,7;0,105094;140,135
6,72;0,105424;140,517
6,74;0,105602;140,908
6,76;0,105732;141,31
6,78;0,105947;141,707
6,8;0,105847;142,104
6,82;0,105902;142,508
6,84;0,106057;142,908
6,86;0,106297;143,29
6,88;0,107228;143,668
6,9;0,108145;144,048
6,92;0,108253;144,435
6,94;0,109257;144,813
6,96;0,109312;145,201
6,98;0,109284;145,584
7;0,109306;145,97
7,02;0,109342;146,344
7,04;0,109341;146,728
7,06;0,109834;147,11
7,08;0,11026;147,507
7,1;0,111022;147,891
7,12;0,111709;148,267
7,14;0,112264;148,65
7,16;0,112358;149,029
7,18;0,112766;149,407
7,2;0,1127;149,782
7,22;0,112696;150,17
7,24;0,112721;150,546
7,26;0,11286;150,914
7,28;0,113276;151,28
7,3;0,114418;151,647
7,32;0,114813;152,009
7,34;0,1155;152,374
7,36;0,115585;152,75
7,38;0,115655;153,118
7,4;0,115648;153,489
7,42;0,115709;153,854
7,44;0,115695;154,213
7,46;0,116025;154,575
7,48;0,116503;154,938
7,5;0,116944;155,301
7,52;0,117974;155,679
7,54;0,118498;156,052
7,56;0,118564;156,424
7,58;0,119037;156,802
7,6;0,119095;157,17
7,62;0,119042;157,537
7,64;0,119093;157,913
7,66;0,119184;158,28
7,68;0,119318;158,641
7,7;0,120826;159,012
7,72;0,120935;159,377
7,74;0,121713;159,745
7,76;0,122064;160,119
7,78;0,12217;160,494
7,8;0,122131;160,863
7,82;0,122303;161,233
7,84;0,122277;161,613
7,86;0,122415;161,988
7,88;0,122822;162,364
7,9;0,123855;162,731
7,92;0,123974;163,101
7,94;0,124801;163,459
7,96;0,124854;163,822
7,98;0,125435;164,184
8;0,125446;164,567
8,02;0,125463;164,934
8,04;0,125422;165,3
8,06;0,125804;165,663
8,08;0,125974;166,029
8,1;0,126713;166,387
8,12;0,127251;166,764
8,14;0,127833;167,132
8,16;0,128396;167,506
8,18;0,12884;167,878
8,2;0,128777;168,25
8,22;0,128872;168,617
8,24;0,128822;168,989
8,26;0,1289;169,365
8,28;0,129347;169,731
8,3;0,129733;170,093
8,32;0,130306;170,468
8,34;0,130828;170,836
8,36;0,131233;171,21
8,38;0,131658;171,581
8,4;0,131777;171,952
8,42;0,131866;172,316
8,44;0,131869;172,689
8,46;0,132191;173,048
8,48;0,132225;173,409
8,5;0,132912;173,774
8,52;0,133845;174,129
8,54;0,134062;174,485
8,56;0,134209;174,843
8,58;0,135434;175,203
8,6;0,135348;175,563
8,62;0,135386;175,926
8,64;0,135352;176,288
8,66;0,135398;176,64
8,68;0,135404;177,001
8,7;0,136078;177,358
8,72;0,136599;177,719
8,74;0,136881;178,071
8,76;0,137618;178,437
8,78;0,137937;178,787
8,8;0,137917;179,136
8,82;0,138787;179,484
8,84;0,138546;179,842
8,86;0,138562;180,186
8,88;0,138686;180,548
8,9;0,138989;180,919
8,92;0,139235;181,27
8,94;0,14053;181,616
8,96;0,140564;181,965
8,98;0,140921;182,311
9;0,141248;182,658
9,02;0,141682;183,006
9,04;0,141523;183,361
9,06;0,141623;183,713
9,08;0,141628;184,06
9,1;0,142352;184,403
9,12;0,142396;184,754
9,14;0,143555;185,094
9,16;0,14358;185,437
9,18;0,144085;185,781
9,2;0,144333;186,132
9,22;0,144367;186,478
9,24;0,144475;186,825
9,26;0,144502;187,179
9,28;0,144515;187,536
9,3;0,145255;187,887
9,32;0,145556;188,266
9,34;0,146471;188,65
9,36;0,146871;189,043
9,38;0,147235;189,437
9,4;0,147504;189,849
9,42;0,147846;190,253
9,44;0,147932;190,674
9,46;0,147964;191,105
9,48;0,148086;191,551
9,5;0,14854;191,992
9,52;0,14884;192,448
9,54;0,149916;192,921
9,56;0,150073;193,392
9,58;0,151117;193,857
9,6;0,151123;194,335
9,62;0,151582;194,818
9,64;0,151699;195,293
9,66;0,152014;195,773
9,68;0,152335;196,269
9,7;0,152841;196,761
9,72;0,153127;197,262
9,74;0,154177;197,772
9,76;0,154683;198,293
9,78;0,155206;198,821
9,8;0,155536;199,359
9,82;0,156136;199,894
9,84;0,156171;200,441
9,86;0,156811;200,996
9,88;0,157035;201,555
9,9;0,1574;202,124
9,92;0,157935;202,699
9,94;0,158826;203,267
9,96;0,159298;203,842
9,98;0,160196;204,427
10;0,160699;205,017
10,02;0,160929;205,61
10,04;0,161183;206,221
10,06;0,162119;206,833
10,08;0,162126;207,447
10,1;0,162771;208,074
10,12;0,163128;208,716
10,14;0,164038;209,347
10,16;0,164739;209,981
10,18;0,165738;210,63
10,2;0,166101;211,284
10,22;0,166895;211,942
10,24;0,166919;212,617
10,26;0,167769;213,308
10,28;0,167773;213,99
10,3;0,168489;214,683
10,32;0,169025;215,386
10,34;0,169695;216,093
10,36;0,170676;216,799
10,38;0,171602;217,517
10,4;0,172075;218,244
10,42;0,172873;218,966
10,44;0,173104;219,698
10,46;0,173836;220,435
10,48;0,174001;221,182
10,5;0,175162;221,926
10,52;0,175329;222,669
10,54;0,176541;223,414
10,56;0,177179;224,167
10,58;0,177902;224,913
10,6;0,178681;225,671
10,62;0,179539;226,446
10,64;0,179618;227,219
10,66;0,180372;227,996
10,68;0,180699;228,784
10,7;0,181499;229,563
10,72;0,181969;230,342
10,74;0,183017;231,126
10,76;0,183423;231,904
10,78;0,184607;232,676
10,8;0,185261;233,473
10,82;0,185885;234,262
10,84;0,186785;235,066
10,86;0,18731;235,88
10,88;0,187468;236,707
10,9;0,188622;237,523
10,92;0,18908;238,361
10,94;0,189976;239,187
10,96;0,190857;240,019
10,98;0,191621;240,867
11;0,192617;241,703
11,02;0,193494;242,534
11,04;0,194125;243,395
11,06;0,194814;244,256
11,08;0,195108;245,108
11,1;0,196089;245,968
11,12;0,196406;246,85
11,14;0,197735;247,721
11,16;0,198302;248,604
11,18;0,199248;249,482
11,2;0,200343;250,377
11,22;0,201054;251,268
11,24;0,201776;252,173
11,26;0,202471;253,068
11,28;0,20307;253,983
11,3;0,203893;254,904
11,32;0,204392;255,825
11,34;0,205682;256,75
11,36;0,206464;257,693
11,38;0,20745;258,633
11,4;0,208461;259,572
11,42;0,209171;260,53
11,44;0,209958;261,492
11,46;0,211046;262,449
11,48;0,21136;263,426
11,5;0,212296;264,409
11,52;0,21307;265,393
11,54;0,21401;266,373
11,56;0,215045;267,367
11,58;0,216033;268,346
11,6;0,21697;269,328
11,62;0,217711;270,288
11,64;0,218668;271,255
11,66;0,219703;272,224
11,68;0,220347;273,203
11,7;0,221417;274,192
11,72;0,221896;275,206
11,74;0,223072;276,218
11,76;0,223788;277,234
11,78;0,225212;278,251
11,8;0,225915;279,273
11,82;0,226915;280,291
11,84;0,228072;281,32
11,86;0,228812;282,338
11,88;0,229658;283,367
11,9;0,230762;284,4
11,92;0,231067;285,431
11,94;0,232337;286,464
11,96;0,233177;287,511
11,98;0,234204;288,557
12;0,235446;289,601
12,02;0,236316;290,654
12,04;0,237226;291,714
12,06;0,238348;292,766
12,08;0,238867;293,83
12,1;0,240295;294,901
12,12;0,240775;295,978
12,14;0,242013;297,055
12,16;0,242944;298,15
12,18;0,244122;299,249
12,2;0,245169;300,355
12,22;0,246312;301,463
12,24;0,24712;302,583
12,26;0,248333;303,694
12,28;0,248939;304,795
12,3;0,250027;305,892
12,32;0,250764;306,985
12,34;0,251731;308,061
12,36;0,25258;309,132
12,38;0,253738;310,196
12,4;0,254808;311,252
12,42;0,255862;312,314
12,44;0,256439;313,375
12,46;0,257725;314,449
12,48;0,258683;315,524
12,5;0,25949;316,601
12,52;0,26041;317,669
12,54;0,261788;318,723
12,56;0,262089;319,78
12,58;0,263467;320,827
12,6;0,264547;321,871
12,62;0,265257;322,917
12,64;0,266476;323,983
12,66;0,26736;325,028
12,68;0,268103;326,087
12,7;0,269289;327,123
12,72;0,270295;328,17
12,74;0,270854;329,208
12,76;0,271939;330,255
12,78;0,27287;331,307
12,8;0,273953;332,37
12,82;0,275088;333,412
12,84;0,276137;334,456
12,86;0,276882;335,49
12,88;0,277754;336,521
12,9;0,278977;337,544
12,92;0,279457;338,566
12,94;0,281012;339,585
12,96;0,281264;340,605
12,98;0,282726;341,612
13;0,283373;342,63
13,02;0,285028;343,658
13,04;0,285605;344,686
13,06;0,286813;345,715
13,08;0,2878;346,748
13,1;0,288503;347,78
13,12;0,289166;348,807
13,14;0,290542;349,834
13,16;0,291094;350,85
13,18;0,292322;351,863
13,2;0,293289;352,871
13,22;0,294196;353,876
13,24;0,295112;354,879
13,26;0,296396;355,898
13,28;0,297019;356,926
13,3;0,298129;357,962
13,32;0,298955;359,003
13,34;0,299994;360,06
13,36;0,300952;361,124
13,38;0,302171;362,191
13,4;0,303012;363,258
13,42;0,304182;364,324
13,44;0,305154;365,374
13,46;0,306122;366,419
13,48;0,306908;367,457
13,5;0,308058;368,486
13,52;0,308672;369,508
13,54;0,309771;370,54
13,56;0,310766;371,573
13,58;0,312027;372,602
13,6;0,31291;373,634
13,62;0,313881;374,682
13,64;0,314932;375,72
13,66;0,315872;376,749
13,68;0,316672;377,789
13,7;0,317836;378,832
13,72;0,318545;379,868
13,74;0,319665;380,901
13,76;0,320618;381,95
13,78;0,321755;382,995
13,8;0,322709;384,045
13,82;0,323898;385,099
13,84;0,324948;386,166
13,86;0,326;387,222
13,88;0,326886;388,287
13,9;0,327984;389,348
13,92;0,32873;390,412
13,94;0,329661;391,469
13,96;0,330739;392,532
13,98;0,331963;393,593
14;0,332815;394,652
14,02;0,334249;395,713
14,04;0,334816;396,792
14,06;0,33611;397,866
14,08;0,336974;398,942
14,1;0,338074;400,021
14,12;0,338863;401,105
14,14;0,339851;402,155
14,16;0,340863;403,204
14,18;0,341939;404,255
14,2;0,343163;405,299
14,22;0,344042;406,332
14,24;0,34501;407,395
14,26;0,346071;408,461
14,28;0,346843;409,515
14,3;0,348081;410,579
14,32;0,348875;411,653
14,34;0,349919;412,726
14,36;0,350891;413,799
14,38;0,352061;414,885
14,4;0,35311;415,966
14,42;0,354206;417,032
14,44;0,355287;418,078
14,46;0,355975;419,127
14,48;0,356969;420,155
14,5;0,358054;421,184
14,52;0,35885;422,217
14,54;0,360132;423,261
14,56;0,360867;424,294
14,58;0,36214;425,35
14,6;0,3629;426,397
14,62;0,364306;427,445
14,64;0,364995;428,486
14,66;0,366078;429,52
14,68;0,36707;430,543
14,7;0,367942;431,568
14,72;0,368724;432,593
14,74;0,370005;433,619
14,76;0,370925;434,662
14,78;0,372029;435,711
14,8;0,373088;436,768
14,82;0,374211;437,825
14,84;0,375294;438,89
14,86;0,376422;439,958
14,88;0,377387;441,025
14,9;0,37841;442,094
14,92;0,379263;443,154
14,94;0,380565;444,229
14,96;0,381221;445,291
14,98;0,382581;446,343
15;0,383428;447,391
15,02;0,384569;448,439
15,04;0,38575;449,469
15,06;0,386465;450,49
15,08;0,387279;451,523
15,1;0,388562;452,564
15,12;0,389319;453,632
15,14;0,390447;454,696
15,16;0,391419;455,776
15,18;0,392619;456,864
15,2;0,393682;457,959
15,22;0,394802;459,023
15,24;0,395871;460,098
15,26;0,397079;461,141
15,28;0,397862;462,171
15,3;0,398983;463,179
15,32;0,39969;464,196
15,34;0,400816;465,205
15,36;0,401842;466,236
15,38;0,402826;467,265
15,4;0,403683;468,302
15,42;0,404789;469,314
15,44;0,405493;470,317
15,46;0,406781;471,311
15,48;0,407372;472,305
15,5;0,408498;473,285
15,52;0,409253;474,292
15,54;0,41015;475,308
15,56;0,411439;476,327
15,58;0,412302;477,347
15,6;0,4131;478,372
15,62;0,414231;479,401
15,64;0,415022;480,412
15,66;0,416065;481,426
15,68;0,416917;482,43
15,7;0,417769;483,425
15,72;0,418574;484,425
15,74;0,419702;485,426
15,76;0,420481;486,419
15,78;0,421429;487,414
15,8;0,422524;488,408
15,82;0,423491;489,396
15,84;0,424197;490,4
15,86;0,425413;491,413
15,88;0,42623;492,447
15,9;0,427297;493,505
15,92;0,427978;494,552
15,94;0,429086;495,592
15,96;0,429803;496,636
15,98;0,43095;497,652
16;0,431952;498,658
16,02;0,432733;499,667
16,04;0,433718;500,674
16,06;0,434697;501,68
16,08;0,435358;502,712
16,1;0,436704;503,743
16,12;0,437377;504,774
16,14;0,438632;505,808
16,16;0,439536;506,838
16,18;0,440538;507,86
16,2;0,441597;508,867
16,22;0,442785;509,887
16,24;0,443633;510,912
16,26;0,444843;511,944
16,28;0,445762;512,981
16,3;0,446858;514,032
16,32;0,44778;515,074
16,34;0,448868;516,118
16,36;0,44977;517,156
16,38;0,450879;518,177
16,4;0,451855;519,189
16,42;0,453005;520,203
16,44;0,454044;521,219
16,46;0,455127;522,232
16,48;0,456095;523,248
16,5;0,457355;524,27
16,52;0,458382;525,294
16,54;0,459456;526,327
16,56;0,460548;527,375
16,58;0,46159;528,424
16,6;0,462657;529,496
16,62;0,463871;530,569
16,64;0,464732;531,636
16,66;0,466231;532,682
16,68;0,46712;533,716
16,7;0,468166;534,732
16,72;0,469328;535,735
16,74;0,470321;536,718
16,76;0,4711;537,715
16,78;0,47248;538,719
16,8;0,473364;539,716
16,82;0,474451;540,703
16,84;0,475531;541,689
16,86;0,476819;542,675
16,88;0,477574;543,669
16,9;0,478998;544,669
16,92;0,480076;545,707
16,94;0,481147;546,766
16,96;0,482146;547,811
16,98;0,483419;548,853
17;0,484095;549,881
17,02;0,485636;550,882
17,04;0,486637;551,867
17,06;0,487756;552,855
17,08;0,489016;553,845
17,1;0,490139;554,85
17,12;0,491083;555,854
17,14;0,492284;556,864
17,16;0,493196;557,887
17,18;0,494229;558,91
17,2;0,495184;559,95
17,22;0,49639;561,001
17,24;0,497449;562,053
17,26;0,498524;563,109
17,28;0,499787;564,172
17,3;0,500978;565,205
17,32;0,501814;566,236
17,34;0,503212;567,26
17,36;0,504059;568,283
17,38;0,505506;569,301
17,4;0,506458;570,326
17,42;0,507555;571,324
17,44;0,508496;572,339
17,46;0,509831;573,352
17,48;0,510754;574,374
17,5;0,511983;575,427
17,52;0,513073;576,528
17,54;0,514157;577,634
17,56;0,515156;578,742
17,58;0,516616;579,825
17,6;0,51719;580,881
17,62;0,518341;581,896
17,64;0,519263;582,918
17,66;0,52032;583,919
17,68;0,521363;584,953
17,7;0,522389;585,98
17,72;0,523691;587,014
17,74;0,524756;588,012
17,76;0,525535;589,025
17,78;0,527127;590,024
17,8;0,527944;591,053
17,82;0,529032;592,095
17,84;0,530178;593,175
17,86;0,531245;594,259
17,88;0,531979;595,347
17,9;0,533786;596,416
17,92;0,534446;597,489
17,94;0,535777;598,554
17,96;0,536981;599,619
17,98;0,537929;600,664
18;0,538942;601,713
18,02;0,540362;602,753
18,04;0,541011;603,795
18,06;0,542233;604,852
18,08;0,54345;605,938
18,1;0,544723;607,039
18,12;0,545859;608,149
18,14;0,547469;609,261
18,16;0,548278;610,352
18,18;0,549725;611,41
18,2;0,550831;612,469
18,22;0,552094;613,524
18,24;0,552853;614,566
18,26;0,554214;615,61
18,28;0,555203;616,672
18,3;0,556461;617,721
18,32;0,55752;618,766
18,34;0,558896;619,831
18,36;0,560009;620,91
18,38;0,561275;622,014
18,4;0,562683;623,139
18,42;0,563956;624,263
18,44;0,564877;625,394
18,46;0,566224;626,509
18,48;0,567197;627,603
18,5;0,568505;628,684
18,52;0,569822;629,77
18,54;0,571307;630,837
18,56;0,572123;631,905
18,58;0,573761;632,988
18,6;0,574732;634,079
18,62;0,575957;635,18
18,64;0,577383;636,313
18,66;0,578373;637,462
18,68;0,579516;638,593
18,7;0,581248;639,709
18,72;0,581998;640,819
18,74;0,583569;641,904
18,76;0,584749;642,99
18,78;0,586388;644,083
18,8;0,587177;645,177
18,82;0,588754;646,257
18,84;0,589663;647,33
18,86;0,590964;648,408
18,88;0,592364;649,504
18,9;0,593497;650,64
18,92;0,594717;651,801
18,94;0,596565;652,974
18,96;0,597622;654,142
18,98;0,599155;655,276
19;0,600276;656,396
19,02;0,601537;657,51
19,04;0,602624;658,62
19,06;0,60433;659,732
19,08;0,605274;660,863
19,1;0,606589;661,991
19,12;0,608075;663,121
19,14;0,609251;664,254
19,16;0,610752;665,396
19,18;0,612362;666,546
19,2;0,613471;667,693
19,22;0,615183;668,83
19,24;0,616066;669,977
19,26;0,617766;671,123
19,28;0,618595;672,264
19,3;0,62035;673,381
19,32;0,621774;674,497
19,34;0,623012;675,595
19,36;0,624683;676,69
19,38;0,625748;677,794
19,4;0,627523;678,933
19,42;0,628917;680,084
19,44;0,630015;681,242
19,46;0,631961;682,382
19,48;0,632745;683,515
19,5;0,634512;684,619
19,52;0,635752;685,727
19,54;0,637113;686,839
19,56;0,638503;687,971
19,58;0,64012;689,104
19,6;0,641422;690,259
19,62;0,642816;691,399
19,64;0,644267;692,534
19,66;0,645783;693,653
19,68;0,647058;694,785
19,7;0,648865;695,901
19,72;0,650107;697,021
19,74;0,651761;698,15
19,76;0,653185;699,287
19,78;0,654883;700,404
19,8;0,65601;701,503
19,82;0,657788;702,587
19,84;0,659043;703,651
19,86;0,660656;704,727
19,88;0,661976;705,816
19,9;0,663703;706,926
19,92;0,665199;708,082
19,94;0,666971;709,236
19,96;0,668398;710,366
19,98;0,670171;711,468
20;0,67174;712,57
20,02;0,673293;713,654
20,04;0,674839;714,752
20,06;0,676378;715,855
20,08;0,677873;716,982
20,1;0,679458;718,102
20,12;0,681086;719,217
20,14;0,682837;720,336
20,16;0,684148;721,477
20,18;0,685998;722,605
20,2;0,68775;723,748
20,22;0,689355;724,875
20,24;0,690952;725,991
20,26;0,692625;727,083
20,28;0,693995;728,172
20,3;0,695866;729,226
20,32;0,697532;730,274
20,34;0,699274;731,322
20,36;0,700493;732,382
20,38;0,702417;733,459
20,4;0,704012;734,585
20,42;0,705692;735,722
20,44;0,707472;736,849
20,46;0,709201;737,959
20,48;0,710635;739,043
20,5;0,712537;740,105
20,52;0,714227;741,179
20,54;0,715932;742,248
20,56;0,717727;743,33
20,58;0,719463;744,411
20,6;0,720935;745,493
20,62;0,7232;746,548
20,64;0,724693;747,62
20,66;0,726436;748,701
20,68;0,728198;749,797
20,7;0,729955;750,891
20,72;0,731659;752
20,74;0,733695;753,098
20,76;0,735437;754,168
20,78;0,737394;755,224
20,8;0,739093;756,274
20,82;0,741121;757,303
20,84;0,742615;758,353
20,86;0,744564;759,426
20,88;0,746148;760,514
20,9;0,748085;761,608
20,92;0,749967;762,729
20,94;0,751951;763,814
20,96;0,753915;764,884
20,98;0,755938;765,944
21;0,757761;767,008
21,02;0,75964;768,058
21,04;0,761671;769,126
21,06;0,76353;770,182
21,08;0,765403;771,241
21,1;0,767351;772,278
21,12;0,769206;773,328
21,14;0,771169;774,402
21,16;0,773151;775,51
21,18;0,775416;776,631
21,2;0,777146;777,777
21,22;0,779278;778,883
21,24;0,781421;779,956
21,26;0,783184;781,005
21,28;0,785143;782,037
21,3;0,787489;783,036
21,32;0,788952;784,069
21,34;0,791384;785,117
21,36;0,793491;786,169
21,38;0,795545;787,234
21,4;0,797744;788,325
21,42;0,800072;789,418
21,44;0,801854;790,496
21,46;0,804442;791,561
21,48;0,806403;792,614
21,5;0,808412;793,648
21,52;0,810739;794,682
21,54;0,812867;795,71
21,56;0,814991;796,738
21,58;0,81744;797,747
21,6;0,819462;798,77
21,62;0,821771;799,798
21,64;0,823962;800,845
21,66;0,826416;801,921
21,68;0,828643;803,002
21,7;0,831146;804,072
21,72;0,833361;805,121
21,74;0,835833;806,155
21,76;0,83822;807,175
21,78;0,840701;808,201
21,8;0,843033;809,219
21,82;0,845482;810,241
21,84;0,847675;811,258
21,86;0,850184;812,254
21,88;0,852254;813,253
21,9;0,854881;814,276
21,92;0,857249;815,311
21,94;0,860033;816,354
21,96;0,862614;817,405
21,98;0,865024;818,438
22;0,867594;819,456
22,02;0,870314;820,445
22,04;0,872483;821,415
22,06;0,875231;822,39
22,08;0,877699;823,378
22,1;0,880517;824,364
22,12;0,883083;825,376
22,14;0,885918;826,415
22,16;0,888625;827,459
22,18;0,891557;828,495
22,2;0,894204;829,527
22,22;0,897348;830,522
22,24;0,900154;831,515
22,26;0,902641;832,498
22,28;0,905616;833,474
22,3;0,908591;834,435
22,32;0,911156;835,405
22,34;0,91433;836,355
22,36;0,916803;837,3
22,38;0,919722;838,254
22,4;0,922824;839,223
22,42;0,925932;840,204
22,44;0,929064;841,198
22,46;0,932291;842,192
22,48;0,935284;843,16
22,5;0,938428;844,109
22,52;0,941529;845,052
22,54;0,944841;845,963
22,56;0,947875;846,847
22,58;0,951282;847,75
22,6;0,954382;848,666
22,62;0,957743;849,582
22,64;0,961112;850,529
22,66;0,964571;851,497
22,68;0,968041;852,455
22,7;0,971446;853,392
22,72;0,975089;854,308
22,74;0,978653;855,207
22,76;0,982173;856,109
22,78;0,985967;857,011
22,8;0,989366;857,904
22,82;0,993222;858,787
22,84;0,996905;859,65
22,86;1,0005;860,505
22,88;1,00405;861,368
22,9;1,008;862,255
22,92;1,01182;863,16
22,94;1,01597;864,076
22,96;1,01997;864,96
22,98;1,02417;865,819
23;1,02799;866,665
23,02;1,03238;867,486
23,04;1,0365;868,286
23,06;1,04075;869,1
23,08;1,04492;869,917
23,1;1,0492;870,724
23,12;1,0532;871,54
23,14;1,05772;872,368
23,16;1,0621;873,186
23,18;1,06667;873,998
23,2;1,0713;874,807
23,22;1,07616;875,596
23,24;1,08079;876,396
23,26;1,08556;877,199
23,28;1,09034;877,993
23,3;1,09522;878,758
23,32;1,10013;879,53
23,34;1,10493;880,275
23,36;1,10987;881,01
23,38;1,11508;881,767
23,4;1,12028;882,552
23,42;1,12562;883,319
23,44;1,13092;884,075
23,46;1,13649;884,81
23,48;1,1417;885,503
23,5;1,14722;886,169
23,52;1,15271;886,85
23,54;1,15828;887,508
23,56;1,16376;888,172
23,58;1,16998;888,845
23,6;1,1753;889,499
23,62;1,18149;890,129
23,64;1,18723;890,777
23,66;1,19305;891,412
23,68;1,19921;892,042
23,7;1,2056;892,67
23,72;1,21149;893,295
23,74;1,21801;893,896
23,76;1,22398;894,491
23,78;1,23074;895,061
23,8;1,23711;895,613
23,82;1,24373;896,138
23,84;1,25025;896,673
23,86;1,25672;897,219
23,88;1,26324;897,762
23,9;1,27032;898,321
23,92;1,27715;898,901
23,94;1,28419;899,448
23,96;1,29135;899,941
23,98;1,29859;900,428
24;1,30564;900,892
24,02;1,31329;901,326
24,04;1,32046;901,776
24,06;1,32818;902,225
24,08;1,33573;902,667
24,1;1,34313;903,087
24,12;1,35084;903,52
24,14;1,35859;903,936
24,16;1,36625;904,356
24,18;1,37426;904,754
24,2;1,38219;905,166
24,22;1,3903;905,552
24,24;1,39884;905,929
24,26;1,40699;906,3
24,28;1,41529;906,648
24,3;1,42392;906,95
24,32;1,43202;907,253
24,34;1,44071;907,55
24,36;1,44944;907,84
24,38;1,45778;908,169
24,4;1,46666;908,522
24,42;1,47578;908,85
24,44;1,48477;909,142
24,46;1,49412;909,403
24,48;1,503;909,631
24,5;1,5123;909,853
24,52;1,52143;910,087
24,54;1,53091;910,318
24,56;1,54052;910,547
24,58;1,55002;910,772
24,6;1,55919;910,974
24,62;1,56908;911,156
24,64;1,57849;911,35
24,66;1,58832;911,561
24,68;1,59821;911,752
24,7;1,60812;911,942
24,72;1,61806;912,118
24,74;1,62809;912,264
24,76;1,63824;912,386
24,78;1,64848;912,512
24,8;1,65846;912,618
24,82;1,66896;912,73
24,84;1,6791;912,866
24,86;1,68952;913,003
24,88;1,70009;913,155
24,9;1,71062;913,314
24,92;1,72111;913,471
24,94;1,73211;913,585
24,96;1,74267;913,688
24,98;1,75382;913,771
25;1,76455;913,85
25,02;1,77526;913,919
25,04;1,78632;913,988
25,06;1,7974;914,045
25,08;1,80828;914,09
25,1;1,8192;914,128
25,12;1,83023;914,168
25,14;1,84123;914,222
25,16;1,85222;914,303
25,18;1,86362;914,385
25,2;1,87447;914,447
25,22;1,88574;914,482
25,24;1,89686;914,512
25,26;1,90795;914,515
25,28;1,9193;914,511
25,3;1,9309;914,52
25,32;1,94157;914,539
25,34;1,95314;914,564
25,36;1,96425;914,596
25,38;1,97584;914,633
25,4;1,98733;914,681
25,42;1,99914;914,726
25,44;2,01098;914,767
25,46;2,02247;914,792
25,48;2,03439;914,798
25,5;2,04624;914,798
25,52;2,05721;914,795
25,54;2,06925;914,774
25,56;2,08075;914,755
25,58;2,09237;914,741
25,6;2,10437;914,734
25,62;2,11635;914,74
25,64;2,12791;914,775
25,66;2,14048;914,81
25,68;2,15236;914,836
25,7;2,1647;914,835
25,72;2,17679;914,825
25,74;2,18898;914,785
25,76;2,20064;914,754
25,78;2,21289;914,732
25,8;2,22458;914,715
25,82;2,23713;914,695
25,84;2,24857;914,686
25,86;2,26091;914,678
25,88;2,27276;914,673
25,9;2,28517;914,688
25,92;2,29731;914,712
25,94;2,31012;914,718
25,96;2,32215;914,72
25,98;2,33469;914,726
26;2,34687;914,711
26,02;2,35904;914,677
26,04;2,3713;914,643
26,06;2,38367;914,598
26,08;2,39552;914,552
26,1;2,40785;914,514
26,12;2,42018;914,497
26,14;2,43269;914,504
26,16;2,44471;914,524
26,18;2,45747;914,524
26,2;2,46971;914,524
26,22;2,48242;914,498
26,24;2,49466;914,474
26,26;2,50714;914,443
26,28;2,51939;914,42
26,3;2,53218;914,388
26,32;2,54417;914,379
26,34;2,55674;914,356
26,36;2,56891;914,342
26,38;2,58151;914,339
26,4;2,59366;914,351
26,42;2,60669;914,376
26,44;2,61912;914,408
26,46;2,63216;914,423
26,48;2,64501;914,432
26,5;2,65757;914,43
26,52;2,67013;914,409
26,54;2,68327;914,377
26,56;2,69582;914,362
26,58;2,70872;914,351
26,6;2,72179;914,35
26,62;2,73491;914,355
26,64;2,74786;914,372
26,66;2,76101;914,371
26,68;2,77408;914,367
26,7;2,78716;914,356
26,72;2,80003;914,329
26,74;2,81322;914,302
26,76;2,82578;914,282
26,78;2,8394;914,254
26,8;2,85192;914,222
26,82;2,86461;914,188
26,84;2,87726;914,147
26,86;2,89003;914,124
26,88;2,9025;914,125
26,9;2,91588;914,144
26,92;2,92837;914,185
26,94;2,94171;914,233
26,96;2,95484;914,245
26,98;2,9679;914,25
27;2,98057;914,242
27,02;2,99373;914,223
27,04;3,0064;914,206
27,06;3,01942;914,211
27,08;3,03195;914,219
27,1;3,04534;914,234
27,12;3,05783;914,238
27,14;3,07121;914,248
27,16;3,08425;914,257
27,18;3,09692;914,249
27,2;3,11015;914,234
27,22;3,12368;914,236
27,24;3,1361;914,242
27,26;3,14966;914,247
27,28;3,16255;914,252
27,3;3,17571;914,243
27,32;3,18847;914,23
27,34;3,20208;914,21
27,36;3,21429;914,198
27,38;3,22747;914,206
27,4;3,24032;914,24
27,42;3,25361;914,27
27,44;3,26676;914,287
27,46;3,28016;914,295
27,48;3,29266;914,284
27,5;3,30574;914,271
27,52;3,31867;914,263
27,54;3,33148;914,26
27,56;3,34441;914,268
27,58;3,35728;914,29
27,6;3,37006;914,296
27,62;3,38329;914,3
27,64;3,39589;914,327
27,66;3,40932;914,34
27,68;3,42251;914,361
27,7;3,43576;914,385
27,72;3,44896;914,406
27,74;3,46201;914,407
27,76;3,47508;914,414
27,78;3,48824;914,391
27,8;3,50116;914,361
27,82;3,5143;914,322
27,84;3,52716;914,299
27,86;3,53989;914,286
27,88;3,55297;914,309
27,9;3,56611;914,348
27,92;3,57899;914,394
27,94;3,59253;914,425
27,96;3,60533;914,43
27,98;3,61865;914,425
28;3,63142;914,418
28,02;3,64487;914,411
28,04;3,65757;914,411
28,06;3,67096;914,423
28,08;3,68367;914,437
28,1;3,69681;914,441
28,12;3,70942;914,455
28,14;3,72291;914,477
28,16;3,73577;914,5
28,18;3,74912;914,527
28,2;3,762;914,556
28,22;3,77537;914,568
28,24;3,78816;914,576
28,26;3,80147;914,579
28,28;3,81435;914,561
28,3;3,8275;914,534
28,32;3,84046;914,528
28,34;3,85362;914,519
28,36;3,86618;914,537
28,38;3,87953;914,586
28,4;3,89208;914,637
28,42;3,90529;914,669
28,44;3,91803;914,695
28,46;3,93135;914,685
28,48;3,94408;914,675
28,5;3,95713;914,677
28,52;3,97005;914,69
28,54;3,98309;914,697
28,56;3,99596;914,724
28,58;4,0094;914,734
28,6;4,02189;914,736
28,62;4,03484;914,74
28,64;4,04759;914,776
28,66;4,06054;914,793
28,68;4,07343;914,826
28,7;4,08679;914,857
28,72;4,09957;914,876
28,74;4,11262;914,871
28,76;4,12547;914,863
28,78;4,13866;914,83
28,8;4,15119;914,791
28,82;4,16427;914,775
28,84;4,17689;914,783
28,86;4,18967;914,807
28,88;4,20276;914,853
28,9;4,21576;914,907
28,92;4,22867;914,952
28,94;4,24214;914,963
28,96;4,25496;914,971
28,98;4,26784;914,972
29;4,28075;914,972
29,02;4,29373;914,964
29,04;4,30654;914,96
29,06;4,3195;914,957
29,08;4,33221;914,95
29,1;4,34515;914,954
29,12;4,35792;914,982
29,14;4,37128;915,03
29,16;4,38377;915,092
29,18;4,39731;915,147
29,2;4,40995;915,188
29,22;4,42281;915,201
29,24;4,43557;915,196
29,26;4,44846;915,174
29,28;4,46127;915,155
29,3;4,47428;915,135
29,32;4,48688;915,14
29,34;4,49989;915,144
29,36;4,51241;915,167
29,38;4,52549;915,204
29,4;4,53808;915,243
29,42;4,55129;915,264
29,44;4,564;915,284
29,46;4,57689;915,282
29,48;4,58964;915,273
29,5;4,60265;915,272
29,52;4,61514;915,27
29,54;4,62807;915,256
29,56;4,64087;915,251
29,58;4,65339;915,24
29,6;4,66597;915,244
29,62;4,67895;915,268
29,64;4,69147;915,323
29,66;4,70467;915,376
29,68;4,71742;915,438
29,7;4,73056;915,475
29,72;4,74325;915,503
29,74;4,75655;915,512
29,76;4,76926;915,526
29,78;4,78225;915,527
29,8;4,79523;915,534
29,82;4,80804;915,529
29,84;4,82091;915,54
29,86;4,83373;915,557
29,88;4,84663;915,583
29,9;4,85985;915,62
29,92;4,87292;915,656
29,94;4,8864;915,664
29,96;4,89911;915,662
29,98;4,91232;915,663
30;4,925;915,65
30,02;4,93788;915,624
30,04;4,95052;915,62
30,06;4,96343;915,627
30,08;4,97617;915,628
30,1;4,98888;915,643
30,12;5,00162;915,684
30,14;5,01467;915,726
30,16;5,02746;915,768
30,18;5,0409;915,799
30,2;5,05343;915,817
30,22;5,0667;915,832
30,24;5,07924;915,839
30,26;5,09235;915,833
30,28;5,10479;915,835
30,3;5,11801;915,837
30,32;5,13022;915,826
30,34;5,14303;915,821
30,36;5,15556;915,833
30,38;5,1684;915,856
30,4;5,18105;915,901
30,42;5,19429;915,952
30,44;5,20704;916,001
30,46;5,22016;916,017
30,48;5,2329;916,025
30,5;5,24594;916,007
30,52;5,25838;915,996
30,54;5,27141;915,967
30,56;5,28397;915,956
30,58;5,29665;915,958
30,6;5,30902;915,983
30,62;5,32202;916,003
30,64;5,33453;916,044
30,66;5,34749;916,074
30,68;5,36026;916,1
30,7;5,3733;916,109
30,72;5,38587;916,124
30,74;5,39915;916,14
30,76;5,4116;916,164
30,78;5,42499;916,172
30,8;5,43758;916,163
30,82;5,45033;916,14
30,84;5,46272;916,125
30,86;5,47566;916,115
30,88;5,48803;916,134
30,9;5,50095;916,174
30,92;5,51396;916,209
30,94;5,52715;916,23
30,96;5,53968;916,229
30,98;5,55344;916,21
31;5,56554;916,174
31,02;5,57863;916,154
31,04;5,59146;916,14
31,06;5,60421;916,136
31,08;5,61674;916,142
31,1;5,62989;916,166
31,12;5,6422;916,189
31,14;5,65549;916,206
31,16;5,66795;916,233
31,18;5,68118;916,253
31,2;5,6938;916,257
31,22;5,70723;916,271
31,24;5,71962;916,305
31,26;5,73297;916,327
31,28;5,74551;916,337
31,3;5,75877;916,355
31,32;5,77135;916,35
31,34;5,78452;916,332
31,36;5,79697;916,337
31,38;5,81022;916,364
31,4;5,82276;916,403
31,42;5,83635;916,449
31,44;5,84895;916,473
31,46;5,86201;916,482
31,48;5,87488;916,479
31,5;5,88774;916,463
31,52;5,90027;916,449
31,54;5,91371;916,444
31,56;5,92597;916,45
31,58;5,93882;916,448
31,6;5,95137;916,455
31,62;5,96415;916,457
31,64;5,97659;916,479
31,66;5,99003;916,501
31,68;6,00257;916,527
31,7;6,01577;916,545
31,72;6,02842;916,566
31,74;6,04155;916,57
31,76;6,05399;916,57
31,78;6,06711;916,556
31,8;6,07998;916,534
31,82;6,09278;916,525
31,84;6,10549;916,53
31,86;6,11848;916,536
31,88;6,13098;916,576
31,9;6,14426;916,631
31,92;6,15682;916,661
31,94;6,17012;916,664
31,96;6,18314;916,668
31,98;6,1964;916,641
32;6,20894;916,609
32,02;6,22215;916,604
32,04;6,23462;916,603
32,06;6,24769;916,589
32,08;6,26011;916,588
32,1;6,27302;916,584
32,12;6,28536;916,587
32,14;6,29869;916,604
32,16;6,31119;916,631
32,18;6,32428;916,654
32,2;6,33696;916,683
32,22;6,34991;916,68
32,24;6,36242;916,68
32,26;6,37567;916,667
32,28;6,38821;916,651
32,3;6,40113;916,638
32,32;6,41375;916,633
32,34;6,42705;916,626
32,36;6,4391;916,66
32,38;6,45256;916,7
32,4;6,46518;916,725
32,42;6,47829;916,737
32,44;6,49089;916,744
32,46;6,50423;916,717
32,48;6,51671;916,701
32,5;6,52968;916,692
32,52;6,54243;916,7
32,54;6,55566;916,701
32,56;6,56813;916,709
32,58;6,58124;916,698
32,6;6,59365;916,694
32,62;6,60685;916,692
32,64;6,61912;916,705
32,66;6,63262;916,713
32,68;6,6453;916,734
32,7;6,65848;916,752
32,72;6,67114;916,759
32,74;6,68399;916,754
32,76;6,69655;916,739
32,78;6,70957;916,71
32,8;6,72231;916,68
32,82;6,73511;916,669
32,84;6,74777;916,682
32,86;6,7609;916,704
32,88;6,7731;916,747
32,9;6,7868;916,795
32,92;6,79912;916,816
32,94;6,81248;916,823
32,96;6,8253;916,82
32,98;6,83795;916,812
33;6,85069;916,785
33,02;6,864;916,767
33,04;6,87631;916,729
33,06;6,88919;916,699
33,08;6,90156;916,661
33,1;6,91467;916,643
33,12;6,92698;916,645
33,14;6,9404;916,67
33,16;6,95257;916,707
33,18;6,96599;916,729
33,2;6,97844;916,737
33,22;6,99145;916,727
33,24;7,00379;916,703
33,26;7,01674;916,67
33,28;7,02931;916,649
33,3;7,04215;916,63
33,32;7,0546;916,63
33,34;7,06748;916,648
33,36;7,08015;916,676
33,38;7,0934;916,718
33,4;7,10592;916,758
33,42;7,11944;916,782
33,44;7,13241;916,789
33,46;7,14542;916,79
33,48;7,15824;916,787
33,5;7,17116;916,782
33,52;7,18408;916,774
33,54;7,19724;916,76
33,56;7,20989;916,749
33,58;7,22333;916,714
33,6;7,23586;916,701
33,62;7,24898;916,706
33,64;7,26195;916,721
33,66;7,27542;916,728
33,68;7,28799;916,737
33,7;7,30148;916,728
33,72;7,3143;916,697
33,74;7,32707;916,663
33,76;7,33991;916,629
33,78;7,35301;916,607
33,8;7,36537;916,586
33,82;7,37871;916,576
33,84;7,39105;916,572
33,86;7,4037;916,575
33,88;7,41703;916,6
33,9;7,42984;916,623
33,92;7,44258;916,641
33,94;7,45603;916,656
33,96;7,46904;916,671
33,98;7,48194;916,659
34;7,49486;916,655
34,02;7,50807;916,627
34,04;7,52069;916,602
34,06;7,53388;916,583
34,08;7,54644;916,574
34,1;7,55933;916,568
34,12;7,57209;916,59
34,14;7,58514;916,615
34,16;7,59818;916,623
34,18;7,61142;916,624
34,2;7,62438;916,61
34,22;7,63772;916,585
34,24;7,65046;916,558
34,26;7,6634;916,52
34,28;7,6764;916,484
34,3;7,68938;916,451
34,32;7,702;916,419
34,34;7,71497;916,382
34,36;7,72761;916,375
34,38;7,74084;916,385
34,4;7,75349;916,41
34,42;7,76674;916,446
34,44;7,77962;916,473
34,46;7,79241;916,472
34,48;7,80558;916,472
34,5;7,81874;916,445
34,52;7,83148;916,412
34,54;7,84488;916,38
34,56;7,85771;916,373
34,58;7,87073;916,349
34,6;7,88341;916,352
34,62;7,89686;916,359
34,64;7,90954;916,371
34,66;7,92305;916,365
34,68;7,93625;916,352
34,7;7,94949;916,325
34,72;7,96259;916,309
34,74;7,97586;916,292
34,76;7,98871;916,283
34,78;8,0019;916,263
34,8;8,0148;916,228
34,82;8,02812;916,186
34,84;8,04022;916,163
34,86;8,05358;916,151
34,88;8,06665;916,172
34,9;8,07984;916,2
34,92;8,09278;916,229
34,94;8,10648;916,233
34,96;8,11926;916,222
34,98;8,13252;916,194
35;8,14555;916,168
35,02;8,15885;916,131
35,04;8,17169;916,105
35,06;8,18467;916,084
35,08;8,19741;916,068
35,1;8,21045;916,073
35,12;8,22329;916,085
35,14;8,23676;916,092
35,16;8,2498;916,102
35,18;8,26336;916,098
35,2;8,2764;916,085
35,22;8,28946;916,071
35,24;8,30227;916,053
35,26;8,31547;916,017
35,28;8,32803;915,973
35,3;8,34103;915,928
35,32;8,35421;915,885
35,34;8,36689;915,853
35,36;8,37984;915,857
35,38;8,39312;915,878
35,4;8,40574;915,9
35,42;8,41911;915,907
35,44;8,43238;915,905
35,46;8,44562;915,885
35,48;8,45811;915,863
35,5;8,47189;915,843
35,52;8,48483;915,833
35,54;8,49801;915,828
35,56;8,51094;915,829
35,58;8,52437;915,823
35,6;8,53687;915,812
35,62;8,55041;915,809
35,64;8,56366;915,795
35,66;8,57662;915,784
35,68;8,58992;915,786
35,7;8,60401;915,773
35,72;8,61634;915,761
35,74;8,63053;915,749
35,76;8,64381;915,704
35,78;8,65695;915,637
35,8;8,67042;915,582
35,82;8,68334;915,522
35,84;8,69607;915,479
35,86;8,70943;915,467
35,88;8,72253;915,476
35,9;8,73579;915,486
35,92;8,74926;915,484
35,94;8,76234;915,454
35,96;8,77603;915,426
35,98;8,78911;915,389
36;8,80247;915,365
36,02;8,81567;915,341
36,04;8,82882;915,335
36,06;8,8419;915,306
36,08;8,85508;915,288
36,1;8,8682;915,264
36,12;8,88159;915,246
36,14;8,89454;915,232
36,16;8,90803;915,232
36,18;8,92167;915,226
36,2;8,93459;915,212
36,22;8,94822;915,191
36,24;8,96119;915,167
36,26;8,97447;915,121
36,28;8,98793;915,074
36,3;9,00135;915,033
36,32;9,01439;914,997
36,34;9,028;914,977
36,36;9,04106;914,991
36,38;9,05458;914,997
36,4;9,06769;914,992
36,42;9,08091;914,969
36,44;9,09431;914,93
36,46;9,10724;914,877
36,48;9,12047;914,837
36,5;9,13406;914,802
36,52;9,14683;914,777
36,54;9,16051;914,742
36,56;9,17341;914,72
36,58;9,18665;914,687
36,6;9,19985;914,656
36,62;9,21332;914,652
36,64;9,22593;914,664
36,66;9,23968;914,661
36,68;9,25311;914,655
36,7;9,266;914,631
36,72;9,27899;914,592
36,74;9,29304;914,533
36,76;9,30558;914,465
36,78;9,31931;914,408
36,8;9,33262;914,372
36,82;9,34583;914,346
36,84;9,35901;914,336
36,86;9,37195;914,338
36,88;9,38523;914,343
36,9;9,39858;914,34
36,92;9,4121;914,31
36,94;9,42558;914,275
36,96;9,43898;914,242
36,98;9,45222;914,199
37;9,46553;914,152
37,02;9,47891;914,105
37,04;9,49225;914,059
37,06;9,50511;914,011
37,08;9,51873;913,971
37,1;9,53176;913,946
37,12;9,54487;913,954
37,14;9,55877;913,965
37,16;9,57221;913,989
37,18;9,58554;913,977
37,2;9,59925;913,952
37,22;9,61247;913,901
37,24;9,62553;913,848
37,26;9,63884;913,756
37,28;9,6519;913,704
37,3;9,66487;913,648
37,32;9,67789;913,6
37,34;9,69152;913,569
37,36;9,70446;913,564
37,38;9,71805;913,553
37,4;9,73123;913,549
37,42;9,74474;913,528
37,44;9,75756;913,491
37,46;9,77132;913,455
37,48;9,78424;913,418
37,5;9,79739;913,37
37,52;9,81087;913,321
37,54;9,82398;913,271
37,56;9,83703;913,219
37,58;9,85038;913,17
37,6;9,86372;913,16
37,62;9,87671;913,167
37,64;9,8903;913,182
37,66;9,90405;913,187
37,68;9,91708;913,174
37,7;9,93094;913,133
37,72;9,94401;913,083
37,74;9,95771;913,032
37,76;9,97104;912,985
37,78;9,98472;912,944
37,8;9,99798;912,903
37,82;10,0115;912,865
37,84;10,0242;912,826
37,86;10,0378;912,791
37,88;10,0512;912,774
37,9;10,0646;912,744
37,92;10,0782;912,722
37,94;10,0917;912,691
37,96;10,1051;912,662
37,98;10,1184;912,605
38;10,1318;912,561
38,02;10,1453;912,491
38,04;10,1585;912,426
38,06;10,1719;912,373
38,08;10,1851;912,332
38,1;10,1985;912,304
38,12;10,2116;912,309
38,14;10,2253;912,311
38,16;10,2388;912,291
38,18;10,2526;912,273
38,2;10,266;912,241
38,22;10,2801;912,199
38,24;10,2932;912,157
38,26;10,3067;912,109
38,28;10,3208;912,059
38,3;10,3339;912,012
38,32;10,3462;911,948
38,34;10,3616;911,884
38,36;10,374;911,846
38,38;10,3867;911,812
38,4;10,4024;911,781
38,42;10,415;911,766
38,44;10,4289;911,739
38,46;10,4426;911,689
38,48;10,4556;911,637
38,5;10,4699;911,569
38,52;10,4827;911,493
38,54;10,4959;911,423
38,56;10,5103;911,36
38,58;10,5229;911,304
38,6;10,536;911,277
38,62;10,5504;911,242
38,64;10,5641;911,227
38,66;10,5772;911,205
38,68;10,591;911,159
38,7;10,6056;911,099
38,72;10,6177;911,074
38,74;10,6307;911,025
38,76;10,6464;910,973
38,78;10,6584;910,93
38,8;10,6714;910,87
38,82;10,687;910,795
38,84;10,6988;910,733
38,86;10,7123;910,702
38,88;10,7271;910,676
38,9;10,7396;910,658
38,92;10,7534;910,628
38,94;10,7679;910,581
38,96;10,7804;910,522
38,98;10,795;910,455
39;10,8083;910,374
39,02;10,8219;910,3
39,04;10,836;910,236
39,06;10,8485;910,163
39,08;10,8625;910,107
39,1;10,8763;910,068
39,12;10,8886;910,027
39,14;10,9035;909,987
39,16;10,9165;909,949
39,18;10,9298;909,89
39,2;10,9445;909,847
39,22;10,9573;909,803
39,24;10,9712;909,748
39,26;10,9853;909,681
39,28;10,9984;909,618
39,3;11,0119;909,541
39,32;11,0256;909,466
39,34;11,039;909,401
39,36;11,0526;909,365
39,38;11,0663;909,332
39,4;11,0799;909,291
39,42;11,0938;909,245
39,44;11,1073;909,179
39,46;11,1214;909,09
39,48;11,1345;909,025
39,5;11,1484;908,952
39,52;11,1621;908,881
39,54;11,1757;908,834
39,56;11,1891;908,8
39,58;11,2032;908,732
39,6;11,2163;908,688
39,62;11,2304;908,661
39,64;11,2441;908,626
39,66;11,2579;908,582
39,68;11,272;908,562
39,7;11,2859;908,523
39,72;11,2992;908,46
39,74;11,3134;908,401
39,76;11,3271;908,323
39,78;11,3409;908,226
39,8;11,3548;908,142
39,82;11,3686;908,069
39,84;11,3822;908,006
39,86;11,3962;907,966
39,88;11,41;907,935
39,9;11,4239;907,889
39,92;11,4377;907,823
39,94;11,4515;907,732
39,96;11,4653;907,642
39,98;11,4791;907,557
40;11,4931;907,483
40,02;11,5071;907,414
40,04;11,5205;907,357
40,06;11,5345;907,281
40,08;11,5478;907,193
40,1;11,5615;907,119
40,12;11,5751;907,058
40,14;11,5888;906,994
40,16;11,6023;906,95
40,18;11,6163;906,915
40,2;11,6298;906,859
40,22;11,6437;906,794
40,24;11,6576;906,717
40,26;11,6713;906,618
40,28;11,6851;906,516
40,3;11,6987;906,421
40,32;11,7123;906,346
40,34;11,7259;906,3
40,36;11,7394;906,265
40,38;11,7534;906,227
40,4;11,7672;906,174
40,42;11,7813;906,086
40,44;11,7954;905,98
40,46;11,8093;905,882
40,48;11,823;905,784
40,5;11,8368;905,703
40,52;11,8508;905,628
40,54;11,8647;905,556
40,56;11,8784;905,464
40,58;11,8919;905,368
40,6;11,9058;905,286
40,62;11,9196;905,218
40,64;11,9336;905,143
40,66;11,9479;905,082
40,68;11,9617;905,021
40,7;11,9754;904,923
40,72;11,9891;904,815
40,74;12,0029;904,71
40,76;12,0166;904,591
40,78;12,0304;904,467
40,8;12,0439;904,376
40,82;12,0577;904,3
40,84;12,0715;904,233
40,86;12,0857;904,192
40,88;12,0997;904,169
40,9;12,1137;904,11
40,92;12,128;904,035
40,94;12,1419;903,949
40,96;12,1558;903,847
40,98;12,1699;903,73
41;12,1837;903,635
41,02;12,1979;903,537
41,04;12,2121;903,439
41,06;12,2259;903,342
41,08;12,2399;903,26
41,1;12,2541;903,189
41,12;12,2686;903,126
41,14;12,2825;903,064
41,16;12,2969;902,994
41,18;12,3113;902,888
41,2;12,3249;902,759
41,22;12,3393;902,625
41,24;12,3533;902,484
41,26;12,3676;902,336
41,28;12,3816;902,21
41,3;12,3957;902,097
41,32;12,4092;901,995
41,34;12,4235;901,903
41,36;12,4373;901,831
41,38;12,4517;901,763
41,4;12,4658;901,684
41,42;12,4799;901,579
41,44;12,4943;901,471
41,46;12,5087;901,353
41,48;12,5223;901,229
41,5;12,5368;901,094
41,52;12,5508;900,954
41,54;12,5646;900,805
41,56;12,5787;900,664
41,58;12,5927;900,54
41,6;12,6067;900,457
41,62;12,6207;900,388
41,64;12,6349;900,326
41,66;12,6494;900,252
41,68;12,6636;900,142
41,7;12,6779;900,002
41,72;12,6919;899,873
41,74;12,7059;899,746
41,76;12,7201;899,612
41,78;12,7342;899,496
41,8;12,7481;899,377
41,82;12,7623;899,263
41,84;12,7761;899,15
41,86;12,7905;899,049
41,88;12,8046;898,953
41,9;12,8194;898,855
41,92;12,8334;898,739
41,94;12,848;898,613
41,96;12,8622;898,488
41,98;12,8761;898,34
42;12,8906;898,189
42,02;12,9047;898,038
42,04;12,9188;897,888
42,06;12,933;897,735
42,08;12,9472;897,61
42,1;12,9613;897,484
42,12;12,9756;897,369
42,14;12,9902;897,255
42,16;13,0042;897,138
42,18;13,0188;896,984
42,2;13,033;896,842
42,22;13,0473;896,691
42,24;13,0615;896,534
42,26;13,0758;896,36
42,28;13,0902;896,205
42,3;13,1045;896,049
42,32;13,1185;895,89
42,34;13,1332;895,738
42,36;13,1472;895,615
42,38;13,1619;895,498
42,4;13,1759;895,385
42,42;13,191;895,266
42,44;13,2051;895,143
42,46;13,2198;895,001
42,48;13,2343;894,832
42,5;13,2488;894,642
42,52;13,2631;894,451
42,54;13,2775;894,263
42,56;13,2914;894,083
42,58;13,3058;893,922
42,6;13,3201;893,787
42,62;13,3346;893,652
42,64;13,3491;893,513
42,66;13,3642;893,353
42,68;13,3785;893,184
42,7;13,3931;893,01
42,72;13,4079;892,839
42,74;13,4223;892,662
42,76;13,4367;892,484
42,78;13,4515;892,293
42,8;13,4656;892,088
42,82;13,4797;891,892
42,84;13,4944;891,704
42,86;13,5087;891,543
42,88;13,5231;891,399
42,9;13,538;891,239
42,92;13,5523;891,059
42,94;13,5668;890,867
42,96;13,5813;890,663
42,98;13,5954;890,439
43;13,6098;890,226
43,02;13,624;890,022
43,04;13,6384;889,823
43,06;13,6526;889,629
43,08;13,667;889,459
43,1;13,6817;889,288
43,12;13,6959;889,107
43,14;13,7105;888,924
43,16;13,7253;888,72
43,18;13,7398;888,502
43,2;13,7543;888,311
43,22;13,7686;888,12
43,24;13,7828;887,912
43,26;13,7975;887,698
43,28;13,8121;887,481
43,3;13,8263;887,236
43,32;13,8405;887,005
43,34;13,8552;886,798
43,36;13,8692;886,623
43,38;13,8841;886,456
43,4;13,899;886,272
43,42;13,9134;886,067
43,44;13,9281;885,837
43,46;13,9429;885,582
43,48;13,9575;885,32
43,5;13,9721;885,082
43,52;13,987;884,851
43,54;14,0016;884,636
43,56;14,0159;884,415
43,58;14,0309;884,19
43,6;14,0455;883,964
43,62;14,0599;883,729
43,64;14,075;883,489
43,66;14,0896;883,246
43,68;14,1045;883,012
43,7;14,1191;882,759
43,72;14,134;882,511
43,74;14,1487;882,245
43,76;14,1633;881,972
43,78;14,1781;881,676
43,8;14,1922;881,398
43,82;14,2069;881,133
43,84;14,2214;880,884
43,86;14,2359;880,67
43,88;14,2507;880,457
43,9;14,2656;880,215
43,92;14,2804;879,948
43,94;14,2957;879,675
43,96;14,3099;879,384
43,98;14,3251;879,082
44;14,3401;878,803
44,02;14,3548;878,518
44,04;14,3692;878,227
44,06;14,384;877,925
44,08;14,3984;877,646
44,1;14,4135;877,36
44,12;14,4278;877,077
44,14;14,443;876,8
44,16;14,458;876,517
44,18;14,4726;876,215
44,2;14,4875;875,905
44,22;14,5025;875,584
44,24;14,5169;875,236
44,26;14,5319;874,889
44,28;14,5467;874,542
44,3;14,5615;874,194
44,32;14,5761;873,87
44,34;14,5905;873,578
44,36;14,6057;873,284
44,38;14,62;872,971
44,4;14,6351;872,645
44,42;14,6499;872,289
44,44;14,6643;871,927
44,46;14,6794;871,57
44,48;14,6944;871,224
44,5;14,7089;870,877
44,52;14,724;870,54
44,54;14,7388;870,182
44,56;14,7533;869,817
44,58;14,7685;869,456
44,6;14,7832;869,122
44,62;14,7979;868,787
44,64;14,8131;868,459
44,66;14,8278;868,124
44,68;14,8429;867,777
44,7;14,858;867,401
44,72;14,8726;867,01
44,74;14,8878;866,601
44,76;14,9026;866,184
44,78;14,9174;865,77
44,8;14,9323;865,363
44,82;14,947;864,966
44,84;14,9616;864,589
44,86;14,9766;864,219
44,88;14,9917;863,843
44,9;15,0066;863,433
44,92;15,0218;863,012
44,94;15,037;862,567
44,96;15,0519;862,113
44,98;15,0667;861,654
45;15,0819;861,202
45,02;15,0966;860,737
45,04;15,1114;860,275
45,06;15,1265;859,822
45,08;15,1412;859,367
45,1;15,1562;858,934
45,12;15,1715;858,519
45,14;15,1865;858,1
45,16;15,2018;857,632
45,18;15,2172;857,142
45,2;15,2322;856,635
45,22;15,2474;856,097
45,24;15,2626;855,54
45,26;15,2778;855,008
45,28;15,293;854,486
45,3;15,3082;853,954
45,32;15,3233;853,439
45,34;15,3384;852,922
45,36;15,354;852,402
45,38;15,3691;851,861
45,4;15,3846;851,303
45,42;15,4;850,72
45,44;15,4149;850,123
45,46;15,4301;849,513
45,48;15,4457;848,905
45,5;15,461;848,276
45,52;15,4764;847,626
45,54;15,4917;846,988
45,56;15,5068;846,354
45,58;15,5223;845,716
45,6;15,5375;845,109
45,62;15,5533;844,487
45,64;15,5687;843,83
45,66;15,5847;843,128
45,68;15,6003;842,375
45,7;15,6162;841,547
45,72;15,6324;840,679
45,74;15,6484;839,68
45,76;15,6651;838,441
45,78;15,6818;836,064
