"s";"%";"MPa"
0;0;5,50914
0,02;4,37307e-005;5,51269
0,04;0,00183118;5,50584
0,06;0,00203008;5,50818
0,08;0,00272491;5,51183
0,1;0,00277577;5,51146
0,12;0,00268021;5,51216
0,14;0,00183637;5,523
0,16;0,00140975;5,5248
0,18;0,000659848;5,52543
0,2;0,00063199;5,5235
0,22;0,000711353;5,52007
0,24;0,00141234;5,51102
0,26;0,00199023;5,51618
0,28;0,00295231;5,50894
0,3;0,00296106;5,51598
0,32;0,0029562;5,51608
0,34;0,00218168;5,52119
0,36;0,00201356;5,51692
0,38;0,0013333;5,52377
0,4;0,00130026;5,52526
0,42;0,0013563;5,52851
0,44;0,00171554;5,52982
0,46;0,00214183;5,53962
0,48;0,00284606;5,55003
0,5;0,00366755;5,57027
0,52;0,00363904;5,59383
0,54;0,00297531;5,64836
0,56;0,00152377;5,70465
0,58;0,00135695;5,79048
0,6;0,0012669;5,89161
0,62;0,00150693;6,01769
0,64;0,00136634;6,14463
0,66;0,00445211;6,29474
0,68;0,00340646;6,46748
0,7;0,00460792;6,65339
0,72;0,00501316;6,85724
0,74;0,00312885;7,07507
0,76;0,00336532;7,3198
0,78;0,0024337;7,56494
0,8;0,00223124;7,82179
0,82;0,00321048;8,09141
0,84;0,00333973;8,3726
0,86;0,00419685;8,66962
0,88;0,00651977;8,98283
0,9;0,00647571;9,32126
0,92;0,00643749;9,67265
0,94;0,0063795;10,0523
0,96;0,00578865;10,4336
0,98;0,00547865;10,8478
1;0,00531247;11,2644
1,02;0,00535297;11,7136
1,04;0,0054482;12,1745
1,06;0,0068058;12,6543
1,08;0,00837168;13,1433
1,1;0,00853494;13,6459
1,12;0,00877886;14,1549
1,14;0,00899784;14,6647
1,16;0,0086603;15,1871
1,18;0,0084206;15,6992
1,2;0,00832828;16,2149
1,22;0,0082311;16,7337
1,24;0,00843776;17,2639
1,26;0,00959841;17,7937
1,28;0,0109819;18,3336
1,3;0,0111568;18,8827
1,32;0,0121973;19,422
1,34;0,0119304;19,9648
1,36;0,0117856;20,5069
1,38;0,0116687;21,0508
1,4;0,0116421;21,6062
1,42;0,0116236;22,1648
1,44;0,011842;22,7151
1,46;0,01223;23,2673
1,48;0,0136884;23,8224
1,5;0,0142974;24,3659
1,52;0,0155821;24,9106
1,54;0,0154875;25,4611
1,56;0,0154878;26,0019
1,58;0,0153096;26,5481
1,6;0,0151286;27,0915
1,62;0,0150813;27,6369
1,64;0,0155144;28,1812
1,66;0,0157602;28,7308
1,68;0,0173303;29,2597
1,7;0,0180644;29,7903
1,72;0,0188596;30,3296
1,74;0,0188395;30,8747
1,76;0,0189312;31,4177
1,78;0,0184136;31,967
1,8;0,0183653;32,5048
1,82;0,0184197;33,0461
1,84;0,0185745;33,5669
1,86;0,0191145;34,0951
1,88;0,0212803;34,6262
1,9;0,0218019;35,1716
1,92;0,0226431;35,6987
1,94;0,0226652;36,2329
1,96;0,022658;36,768
1,98;0,0220024;37,3052
2;0,0220163;37,8256
2,02;0,0220442;38,3513
2,04;0,0221187;38,8849
2,06;0,0227134;39,4176
2,08;0,0246279;39,9448
2,1;0,0247885;40,4914
2,12;0,0255093;41,0313
2,14;0,026175;41,576
2,16;0,0263538;42,1073
2,18;0,0260762;42,6442
2,2;0,0260635;43,1705
2,22;0,0260509;43,6915
2,24;0,0261319;44,207
2,26;0,0263321;44,7264
2,28;0,0284898;45,2517
2,3;0,0285724;45,7738
2,32;0,0294256;46,3096
2,34;0,0301706;46,8312
2,36;0,0301075;47,3581
2,38;0,0299358;47,8869
2,4;0,0299044;48,4203
2,42;0,0297223;48,9352
2,44;0,0298179;49,4538
2,46;0,0302247;49,9757
2,48;0,0318334;50,4897
2,5;0,0319422;51,0067
2,52;0,0333037;51,5285
2,54;0,0334634;52,045
2,56;0,034132;52,5555
2,58;0,033812;53,0688
2,6;0,0336234;53,5715
2,62;0,0334621;54,0791
2,64;0,0335502;54,5923
2,66;0,0335813;55,1044
2,68;0,0341744;55,6084
2,7;0,0349907;56,1075
2,72;0,0368559;56,609
2,74;0,0368844;57,1127
2,76;0,037037;57,6067
2,78;0,0369402;58,1087
2,8;0,0367507;58,6278
2,82;0,0367374;59,1461
2,84;0,0369068;59,6475
2,86;0,0369256;60,1605
2,88;0,0379006;60,6506
2,9;0,0386304;61,1289
2,92;0,0396897;61,6027
2,94;0,0398238;62,0881
2,96;0,0403321;62,574
2,98;0,0402417;63,0707
3;0,040229;63,5633
3,02;0,0402524;64,0545
3,04;0,0402815;64,5554
3,06;0,0402925;65,0423
3,08;0,0412067;65,5305
3,1;0,0420699;66,0266
3,12;0,042643;66,5201
3,14;0,0435354;67,0018
3,16;0,0441314;67,487
3,18;0,0436543;67,9795
3,2;0,0437638;68,4618
3,22;0,0437252;68,9495
3,24;0,0436744;69,4356
3,26;0,0437638;69,9272
3,28;0,0449743;70,4038
3,3;0,0451162;70,8958
3,32;0,0466487;71,3782
3,34;0,0468858;71,8606
3,36;0,0477018;72,3526
3,38;0,0475305;72,8429
3,4;0,0476127;73,3195
3,42;0,0473986;73,8132
3,44;0,0473675;74,3136
3,46;0,0474647;74,7932
3,48;0,0478275;75,2843
3,5;0,048211;75,7888
3,52;0,0494255;76,2706
3,54;0,0500189;76,7532
3,56;0,0502764;77,2454
3,58;0,0503101;77,7379
3,6;0,0507199;78,2191
3,62;0,0504854;78,7111
3,64;0,0506191;79,2063
3,66;0,0507701;79,6993
3,68;0,0512881;80,1766
3,7;0,051715;80,6653
3,72;0,0536262;81,152
3,74;0,0536764;81,6401
3,76;0,0540211;82,1181
3,78;0,0540405;82,599
3,8;0,0544454;83,061
3,82;0,0542559;83,5344
3,84;0,0543181;84,0128
3,86;0,0542997;84,4903
3,88;0,0543891;84,9706
3,9;0,0550065;85,4608
3,92;0,0563812;85,9405
3,94;0,0564324;86,3985
3,96;0,0576533;86,874
3,98;0,0575798;87,3505
4;0,0574735;87,8236
4,02;0,0574382;88,2995
4,04;0,0574512;88,781
4,06;0,0574454;89,2587
4,08;0,0576122;89,7263
4,1;0,058388;90,1996
4,12;0,0592733;90,6614
4,14;0,0597385;91,1281
4,16;0,0607184;91,5814
4,18;0,0607044;92,0525
4,2;0,0607546;92,5222
4,22;0,0607806;92,9973
4,24;0,0607342;93,4651
4,26;0,0607265;93,9375
4,28;0,061121;94,4042
4,3;0,0613837;94,8642
4,32;0,0624731;95,3295
4,34;0,0630228;95,7926
4,36;0,0642745;96,2542
4,38;0,0642994;96,7188
4,4;0,0643934;97,1862
4,42;0,0642531;97,6483
4,44;0,0642722;98,1098
4,46;0,0643182;98,5874
4,48;0,0648035;99,0502
4,5;0,0649871;99,5077
4,52;0,065853;99,9603
4,54;0,0668381;100,423
4,56;0,0673437;100,876
4,58;0,067368;101,333
4,6;0,0676926;101,797
4,62;0,0676077;102,265
4,64;0,0676149;102,726
4,66;0,0676171;103,182
4,68;0,0677337;103,638
4,7;0,0678154;104,1
4,72;0,0692374;104,55
4,74;0,0696569;105,001
4,76;0,0705652;105,448
4,78;0,0707081;105,886
4,8;0,0714146;106,317
4,82;0,0707761;106,767
4,84;0,0712921;107,21
4,86;0,0713025;107,652
4,88;0,0713226;108,117
4,9;0,071364;108,59
4,92;0,0727168;109,054
4,94;0,0727725;109,527
4,96;0,0737968;109,998
4,98;0,0738859;110,448
5;0,0745334;110,897
5,02;0,0742691;111,349
5,04;0,0745133;111,805
5,06;0,0744469;112,259
5,08;0,0744595;112,716
5,1;0,0746555;113,162
5,12;0,0756772;113,614
5,14;0,0757465;114,052
5,16;0,0768463;114,499
5,18;0,0770111;114,956
5,2;0,0775764;115,407
5,22;0,077602;115,853
5,24;0,0776098;116,302
5,26;0,0775596;116,745
5,28;0,0776046;117,189
5,3;0,0776509;117,642
5,32;0,0785339;118,088
5,34;0,0788064;118,536
5,36;0,0797406;118,982
5,38;0,0802819;119,415
5,4;0,0806917;119,838
5,42;0,0806819;120,266
5,44;0,0806978;120,683
5,46;0,0806162;121,115
5,48;0,080679;121,548
5,5;0,0807898;121,979
5,52;0,0814396;122,406
5,54;0,0820457;122,835
5,56;0,0831111;123,262
5,58;0,083231;123,684
5,6;0,0837803;124,113
5,62;0,0840236;124,54
5,64;0,0840414;124,97
5,66;0,0839786;125,391
5,68;0,084148;125,81
5,7;0,0841584;126,24
5,72;0,0842348;126,66
5,74;0,0854797;127,079
5,76;0,0860382;127,502
5,78;0,0861185;127,932
5,8;0,0871706;128,355
5,82;0,0871904;128,786
5,84;0,0871291;129,222
5,86;0,0871178;129,651
5,88;0,0872322;130,075
5,9;0,0871803;130,493
5,92;0,0877475;130,909
5,94;0,0885059;131,322
5,96;0,0888855;131,735
5,98;0,089398;132,156
6;0,090476;132,573
6,02;0,0903458;133
6,04;0,0903481;133,418
6,06;0,0903587;133,852
6,08;0,0903221;134,273
6,1;0,0903921;134,702
6,12;0,0912217;135,113
6,14;0,0912978;135,538
6,16;0,0917306;135,955
6,18;0,0922988;136,378
6,2;0,0931601;136,793
6,22;0,0931514;137,222
6,24;0,0934141;137,646
6,26;0,0933363;138,059
6,28;0,0933153;138,457
6,3;0,0933836;138,869
6,32;0,0937247;139,284
6,34;0,0937623;139,691
6,36;0,0947438;140,101
6,38;0,095069;140,524
6,4;0,0960457;140,938
6,42;0,0960476;141,339
6,44;0,0961082;141,753
6,46;0,0959948;142,151
6,48;0,0961425;142,555
6,5;0,0962096;142,953
6,52;0,0967962;143,351
6,54;0,0968669;143,735
6,56;0,0982015;144,131
6,58;0,098206;144,523
6,6;0,0989559;144,924
6,62;0,0990281;145,332
6,64;0,0994836;145,741
6,66;0,099423;146,139
6,68;0,099503;146,545
6,7;0,099502;146,939
6,72;0,0995231;147,325
6,74;0,0996977;147,716
6,76;0,100662;148,123
6,78;0,100714;148,522
6,8;0,101531;148,921
6,82;0,101888;149,341
6,84;0,102193;149,75
6,86;0,102207;150,149
6,88;0,102291;150,539
6,9;0,102283;150,941
6,92;0,102394;151,336
6,94;0,103059;151,728
6,96;0,104149;152,136
6,98;0,104237;152,551
7;0,105107;152,953
7,02;0,105493;153,346
7,04;0,105539;153,758
7,06;0,105592;154,149
7,08;0,105619;154,533
7,1;0,105556;154,942
7,12;0,10572;155,352
7,14;0,106414;155,759
7,16;0,106864;156,158
7,18;0,107002;156,576
7,2;0,108227;156,973
7,22;0,108123;157,364
7,24;0,108532;157,748
7,26;0,10858;158,145
7,28;0,10868;158,534
7,3;0,108564;158,92
7,32;0,108737;159,32
7,34;0,108793;159,71
7,36;0,109268;160,099
7,38;0,110057;160,504
7,4;0,110884;160,907
7,42;0,110828;161,305
7,44;0,111103;161,705
7,46;0,111265;162,11
7,48;0,111211;162,499
7,5;0,111438;162,89
7,52;0,112238;163,27
7,54;0,112195;163,668
7,56;0,112346;164,066
7,58;0,113163;164,453
7,6;0,11365;164,844
7,62;0,113716;165,252
7,64;0,114256;165,643
7,66;0,114276;166,041
7,68;0,114279;166,436
7,7;0,114332;166,834
7,72;0,114432;167,225
7,74;0,114527;167,612
7,76;0,11561;167,993
7,78;0,116018;168,389
7,8;0,116347;168,771
7,82;0,116575;169,151
7,84;0,117548;169,537
7,86;0,117439;169,922
7,88;0,117526;170,307
7,9;0,117555;170,701
7,92;0,117542;171,09
7,94;0,117619;171,471
7,96;0,118436;171,846
7,98;0,118593;172,225
8;0,11905;172,596
8,02;0,119699;172,97
8,04;0,120033;173,352
8,06;0,120015;173,743
8,08;0,120215;174,115
8,1;0,12026;174,496
8,12;0,120264;174,87
8,14;0,120369;175,242
8,16;0,121236;175,615
8,18;0,121339;175,999
8,2;0,122097;176,371
8,22;0,122686;176,748
8,24;0,122731;177,124
8,26;0,122822;177,495
8,28;0,123436;177,86
8,3;0,123277;178,232
8,32;0,123327;178,598
8,34;0,123437;178,974
8,36;0,123599;179,342
8,38;0,123985;179,713
8,4;0,124948;180,097
8,42;0,124992;180,482
8,44;0,125333;180,854
8,46;0,125739;181,219
8,48;0,126222;181,587
8,5;0,126053;181,944
8,52;0,126192;182,304
8,54;0,126217;182,663
8,56;0,126474;183,037
8,58;0,126864;183,414
8,6;0,128217;183,774
8,62;0,1282;184,139
8,64;0,12844;184,509
8,66;0,128843;184,864
8,68;0,128913;185,234
8,7;0,128994;185,622
8,72;0,129138;185,995
8,74;0,129126;186,37
8,76;0,129222;186,752
8,78;0,129833;187,114
8,8;0,130326;187,475
8,82;0,130419;187,84
8,84;0,131122;188,208
8,86;0,131148;188,576
8,88;0,13162;188,941
8,9;0,131694;189,307
8,92;0,13185;189,682
8,94;0,131868;190,061
8,96;0,132264;190,447
8,98;0,132422;190,846
9;0,133312;191,242
9,02;0,133484;191,636
9,04;0,134357;192,036
9,06;0,134296;192,451
9,08;0,134477;192,87
9,1;0,13459;193,313
9,12;0,134686;193,756
9,14;0,134704;194,218
9,16;0,135978;194,674
9,18;0,135907;195,141
9,2;0,136089;195,61
9,22;0,136419;196,095
9,24;0,1374;196,572
9,26;0,137444;197,054
9,28;0,137759;197,543
9,3;0,138034;198,033
9,32;0,138409;198,531
9,34;0,138524;199,048
9,36;0,139121;199,579
9,38;0,139245;200,113
9,4;0,13996;200,656
9,42;0,140655;201,21
9,44;0,140976;201,758
9,46;0,141536;202,313
9,48;0,14224;202,879
9,5;0,142234;203,447
9,52;0,14235;204,021
9,54;0,142706;204,612
9,56;0,143073;205,199
9,58;0,143328;205,793
9,6;0,144753;206,397
9,62;0,144907;207,016
9,64;0,145491;207,632
9,66;0,145914;208,268
9,68;0,146631;208,907
9,7;0,146587;209,553
9,72;0,14708;210,196
9,74;0,147213;210,85
9,76;0,147494;211,51
9,78;0,148053;212,173
9,8;0,14905;212,842
9,82;0,149174;213,521
9,84;0,150073;214,199
9,86;0,150585;214,871
9,88;0,151329;215,551
9,9;0,151394;216,237
9,92;0,152298;216,911
9,94;0,152336;217,601
9,96;0,152601;218,301
9,98;0,153283;218,991
10;0,154095;219,695
10,02;0,154467;220,405
10,04;0,15537;221,116
10,06;0,155963;221,833
10,08;0,156539;222,562
10,1;0,15674;223,282
10,12;0,157261;224,007
10,14;0,157373;224,735
10,16;0,15829;225,469
10,18;0,158797;226,204
10,2;0,159389;226,94
10,22;0,15985;227,674
10,24;0,160884;228,409
10,26;0,161094;229,147
10,28;0,162125;229,873
10,3;0,162393;230,591
10,32;0,162781;231,306
10,34;0,162885;231,962
10,36;0,163432;232,498
10,38;0,163603;232,876
10,4;0,163944;232,994
10,42;0,16439;232,899
10,44;0,164701;232,718
10,46;0,164573;232,56
10,48;0,164648;232,525
10,5;0,164615;232,72
10,52;0,164621;233,115
10,54;0,164689;233,627
10,56;0,165102;234,213
10,58;0,165198;234,84
10,6;0,165835;235,487
10,62;0,166494;236,15
10,64;0,16742;236,826
10,66;0,168021;237,507
10,68;0,168842;238,187
10,7;0,169002;238,873
10,72;0,169354;239,553
10,74;0,169717;240,24
10,76;0,170299;240,914
10,78;0,17062;241,593
10,8;0,17156;242,268
10,82;0,172104;242,956
10,84;0,172719;243,632
10,86;0,173702;244,341
10,88;0,174254;245,042
10,9;0,174337;245,756
10,92;0,175612;246,47
10,94;0,175612;247,183
10,96;0,175701;247,887
10,98;0,175951;248,586
11;0,176933;249,269
11,02;0,177258;249,949
11,04;0,178087;250,629
11,06;0,178996;251,296
11,08;0,179648;251,965
11,1;0,179803;252,645
11,12;0,180463;253,31
11,14;0,180611;253,983
11,16;0,180953;254,623
11,18;0,181355;255,27
11,2;0,182107;255,913
11,22;0,182533;256,553
11,24;0,183436;257,182
11,26;0,183783;257,856
11,28;0,184773;258,532
11,3;0,185048;259,218
11,32;0,185441;259,915
11,34;0,185593;260,616
11,36;0,186532;261,3
11,38;0,187068;261,98
11,4;0,18762;262,648
11,42;0,188277;263,303
11,44;0,189443;263,95
11,46;0,189547;264,597
11,48;0,190193;265,228
11,5;0,190836;265,861
11,52;0,19129;266,496
11,54;0,191346;267,132
11,56;0,191992;267,763
11,58;0,192133;268,406
11,6;0,192737;269,034
11,62;0,19325;269,681
11,64;0,194388;270,323
11,66;0,194457;270,994
11,68;0,195321;271,654
11,7;0,195789;272,343
11,72;0,196534;273,014
11,74;0,196728;273,699
11,76;0,197308;274,364
11,78;0,197432;275,051
11,8;0,198386;275,726
11,82;0,199171;276,415
11,84;0,199671;277,092
11,86;0,200516;277,772
11,88;0,201445;278,45
11,9;0,201676;279,139
11,92;0,201972;279,834
11,94;0,202453;280,544
11,96;0,202813;281,264
11,98;0,203075;281,991
12;0,2039;282,714
12,02;0,204316;283,431
12,04;0,204984;284,155
12,06;0,205509;284,871
12,08;0,20644;285,573
12,1;0,206582;286,292
12,12;0,207267;287,007
12,14;0,20778;287,727
12,16;0,208196;288,452
12,18;0,208625;289,191
12,2;0,209424;289,918
12,22;0,209695;290,654
12,24;0,210584;291,376
12,26;0,211559;292,106
12,28;0,212015;292,837
12,3;0,212502;293,573
12,32;0,213241;294,316
12,34;0,213653;295,077
12,36;0,213977;295,832
12,38;0,214557;296,588
12,4;0,215063;297,343
12,42;0,215608;298,096
12,44;0,216459;298,836
12,46;0,217093;299,572
12,48;0,21765;300,285
12,5;0,218171;300,976
12,52;0,218822;301,643
12,54;0,218995;302,291
12,56;0,21947;302,897
12,58;0,219592;303,468
12,6;0,219901;303,963
12,62;0,220318;304,328
12,64;0,220649;304,463
12,66;0,2207;304,293
12,68;0,220662;303,795
12,7;0,220492;303,081
12,72;0,219795;302,326
12,74;0,219283;301,7
12,76;0,219234;301,357
12,78;0,21923;301,363
12,8;0,219306;301,643
12,82;0,219456;302,101
12,84;0,219983;302,676
12,86;0,220127;303,316
12,88;0,221053;303,979
12,9;0,221428;304,657
12,92;0,222033;305,333
12,94;0,22218;305,991
12,96;0,222634;306,624
12,98;0,223117;307,229
13;0,223648;307,806
13,02;0,224104;308,362
13,04;0,224643;308,891
13,06;0,225066;309,409
13,08;0,225656;309,914
13,1;0,225942;310,423
13,12;0,226527;310,917
13,14;0,226655;311,411
13,16;0,226988;311,889
13,18;0,227356;312,361
13,2;0,227822;312,788
13,22;0,22807;313,191
13,24;0,228386;313,546
13,26;0,228787;313,851
13,28;0,229235;314,058
13,3;0,229261;314,11
13,32;0,2294;311,627
13,34;0,229336;299,084
13,36;0,227186;285,361
13,38;0,191222;271,605
13,4;0,183451;258,108
13,42;0,187491;247,3
13,44;0,18793;246,727
13,46;0,187828;247,488
13,48;0,188597;248,43
13,5;0,190085;249,256
13,52;0,190481;249,832
13,54;0,190131;250,098
13,56;0,190126;250,053
13,58;0,189909;249,78
13,6;0,189688;249,395
13,62;0,188913;248,981
13,64;0,188911;248,628
13,66;0,188647;248,358
13,68;0,188638;248,153
13,7;0,188644;247,967
13,72;0,188605;247,814
13,74;0,188395;247,662
13,76;0,188368;247,497
13,78;0,188283;247,328
13,8;0,188116;247,162
13,82;0,18801;246,979
13,84;0,187997;246,786
13,86;0,187882;246,607
13,88;0,187761;246,42
13,9;0,187701;246,24
13,92;0,187521;246,063
13,94;0,187253;245,887
13,96;0,187256;245,702
13,98;0,18701;245,515
14;0,186928;245,342
14,02;0,186794;245,178
14,04;0,186751;245,039
14,06;0,186499;244,926
14,08;0,186517;244,836
14,1;0,186478;244,741
14,12;0,186465;244,647
14,14;0,186323;244,527
14,16;0,186314;244,406
14,18;0,18607;244,281
14,2;0,186072;244,156
14,22;0,186046;244,038
14,24;0,186054;243,938
14,26;0,186057;243,829
14,28;0,186111;243,719
14,3;0,186101;243,628
14,32;0,186073;243,54
14,34;0,186112;243,443
14,36;0,186107;243,342
14,38;0,186039;243,235
14,4;0,186071;243,106
14,42;0,18606;242,976
14,44;0,186027;242,855
14,46;0,186039;242,752
14,48;0,186034;242,659
14,5;0,186025;242,594
14,52;0,186048;242,526
14,54;0,186049;242,449
14,56;0,186034;242,373
14,58;0,186025;242,298
14,6;0,18602;242,211
14,62;0,18591;242,138
14,64;0,1859;242,086
14,66;0,185908;242,022
14,68;0,1859;241,973
14,7;0,185869;241,928
14,72;0,185917;241,868
14,74;0,185884;241,809
14,76;0,185771;241,748
14,78;0,18582;241,661
14,8;0,185909;241,566
14,82;0,185558;241,479
14,84;0,185698;241,393
14,86;0,185705;241,327
14,88;0,185583;241,274
14,9;0,185618;241,23
14,92;0,185676;241,188
14,94;0,185535;241,138
14,96;0,185567;241,073
14,98;0,185578;241,009
15;0,185513;240,953
15,02;0,185502;240,906
15,04;0,185512;240,88
15,06;0,185511;240,874
15,08;0,185493;240,863
15,1;0,185508;240,84
15,12;0,185497;240,809
15,14;0,185488;240,777
15,16;0,185517;240,721
15,18;0,185569;240,677
15,2;0,185504;240,632
15,22;0,185509;240,576
15,24;0,18566;240,512
15,26;0,185519;240,472
15,28;0,185727;240,43
15,3;0,18582;240,392
15,32;0,185688;240,371
15,34;0,18568;240,349
15,36;0,185806;240,319
15,38;0,185661;240,297
15,4;0,185666;240,28
15,42;0,185668;240,258
15,44;0,185636;240,237
15,46;0,185605;240,216
15,48;0,185647;240,187
15,5;0,185638;240,158
15,52;0,185618;240,124
15,54;0,185618;240,09
15,56;0,185644;240,072
15,58;0,185597;240,06
15,6;0,185648;240,033
15,62;0,185649;240,024
15,64;0,185622;240,019
15,66;0,185619;239,984
15,68;0,185953;239,94
15,7;0,185821;239,912
15,72;0,186331;239,865
15,74;0,187089;239,818
15,76;0,186161;239,782
15,78;0,186237;239,75
15,8;0,187952;239,728
15,82;0,186269;239,728
15,84;0,186155;239,711
15,86;0,187231;239,692
15,88;0,186441;239,672
15,9;0,186126;239,632
15,92;0,186615;239,579
15,94;0,186426;239,537
15,96;0,186278;239,518
15,98;0,18634;239,507
16;0,186389;239,52
16,02;0,186178;239,526
16,04;0,186234;239,52
16,06;0,186275;239,503
16,08;0,186143;239,471
16,1;0,186158;239,432
16,12;0,186155;239,402
16,14;0,186124;239,373
16,16;0,18617;239,354
16,18;0,18617;239,348
16,2;0,186113;239,334
16,22;0,186241;239,32
16,24;0,186175;239,312
16,26;0,186102;239,294
16,28;0,186222;239,271
16,3;0,186185;239,255
16,32;0,186255;239,24
16,34;0,186271;239,222
16,36;0,186254;239,191
16,38;0,186211;239,15
16,4;0,186229;239,116
16,42;0,186221;239,103
16,44;0,186193;239,104
16,46;0,186194;239,113
16,48;0,186216;239,126
16,5;0,186205;239,133
16,52;0,186201;239,11
16,54;0,186243;239,076
16,56;0,186237;239,028
16,58;0,186208;238,988
16,6;0,186253;238,954
16,62;0,186249;238,954
16,64;0,186261;238,939
16,66;0,186342;238,948
16,68;0,186321;238,958
16,7;0,186513;238,945
16,72;0,186627;238,909
16,74;0,186624;238,893
16,76;0,186835;238,867
16,78;0,186877;238,847
16,8;0,186851;238,839
16,82;0,18682;238,857
16,84;0,186825;238,864
16,86;0,186845;238,884
16,88;0,186859;238,896
16,9;0,186875;238,903
16,92;0,186898;238,881
16,94;0,186884;238,877
16,96;0,186891;238,852
16,98;0,186956;238,832
17;0,187074;238,812
17,02;0,187069;238,802
17,04;0,187086;238,794
17,06;0,187076;238,789
17,08;0,18708;238,798
17,1;0,187177;238,786
17,12;0,187343;238,766
17,14;0,187335;238,735
17,16;0,187351;238,706
17,18;0,187348;238,662
17,2;0,187345;238,639
17,22;0,187357;238,626
17,24;0,187343;238,615
17,26;0,187345;238,614
17,28;0,187348;238,603
17,3;0,187347;238,587
17,32;0,187347;238,562
17,34;0,187327;238,535
17,36;0,187358;238,505
17,38;0,18735;238,493
17,4;0,187333;238,494
17,42;0,187318;238,496
17,44;0,187324;238,48
17,46;0,187302;238,464
17,48;0,187314;238,434
17,5;0,187306;238,404
17,52;0,187306;238,37
17,54;0,187319;238,368
17,56;0,18733;238,358
17,58;0,187325;238,347
17,6;0,187309;238,34
17,62;0,187322;238,337
17,64;0,187327;238,326
17,66;0,187332;238,322
17,68;0,187342;238,326
17,7;0,187334;238,326
17,72;0,187327;238,324
17,74;0,187349;238,317
17,76;0,18735;238,307
17,78;0,187334;238,317
17,8;0,187338;238,321
17,82;0,187351;238,314
17,84;0,18734;238,294
17,86;0,187342;238,279
17,88;0,187345;238,246
17,9;0,187336;238,228
17,92;0,187362;238,226
17,94;0,187367;238,249
17,96;0,187377;238,272
17,98;0,187367;238,283
18;0,187392;238,272
18,02;0,187397;238,242
18,04;0,187394;238,192
18,06;0,187385;238,142
18,08;0,187401;238,11
18,1;0,187397;238,081
18,12;0,187457;238,065
18,14;0,187491;238,072
18,16;0,187492;238,073
18,18;0,187497;238,066
18,2;0,187582;238,052
18,22;0,187627;238,036
18,24;0,187656;238,014
18,26;0,187657;237,995
18,28;0,187786;237,989
18,3;0,187847;237,992
18,32;0,187899;237,989
18,34;0,188015;237,988
18,36;0,188022;237,979
18,38;0,188141;237,955
18,4;0,188361;237,911
18,42;0,188467;237,89
18,44;0,188505;237,875
18,46;0,188506;237,861
18,48;0,188508;237,859
18,5;0,188519;237,871
18,52;0,188552;237,855
18,54;0,188558;237,828
18,56;0,188628;237,806
18,58;0,188736;237,781
18,6;0,188746;237,776
18,62;0,188739;237,792
18,64;0,18879;237,803
18,66;0,188778;237,814
18,68;0,188812;237,824
18,7;0,188845;237,815
18,72;0,188861;237,808
18,74;0,188854;237,81
18,76;0,18891;237,799
18,78;0,188933;237,789
18,8;0,188929;237,785
18,82;0,188935;237,767
18,84;0,188943;237,749
18,86;0,188938;237,755
18,88;0,188948;237,742
18,9;0,188943;237,739
18,92;0,188953;237,764
18,94;0,188956;237,785
18,96;0,189007;237,787
18,98;0,189204;237,816
19;0,189214;237,821
19,02;0,189245;237,798
19,04;0,189295;237,771
19,06;0,18931;237,752
19,08;0,189316;237,742
19,1;0,189312;237,767
19,12;0,189318;237,792
19,14;0,189341;237,815
19,16;0,189504;237,839
19,18;0,189502;237,852
19,2;0,189511;237,849
19,22;0,189558;237,85
19,24;0,189591;237,87
19,26;0,189621;237,888
19,28;0,189895;237,902
19,3;0,18992;237,915
19,32;0,189944;237,93
19,34;0,190034;237,933
19,36;0,190147;237,935
19,38;0,190184;237,929
19,4;0,190353;237,916
19,42;0,190446;237,925
19,44;0,190464;237,938
19,46;0,190515;237,947
19,48;0,19055;237,97
19,5;0,190573;238,009
19,52;0,19068;238,021
19,54;0,190774;238,032
19,56;0,190803;238,059
19,58;0,190975;238,076
19,6;0,191123;238,093
19,62;0,19118;238,127
19,64;0,191267;238,138
19,66;0,191324;238,14
19,68;0,191331;238,138
19,7;0,191367;238,144
19,72;0,191434;238,146
19,74;0,191481;238,17
19,76;0,191537;238,204
19,78;0,191678;238,235
19,8;0,191849;238,238
19,82;0,191887;238,242
19,84;0,192084;238,238
19,86;0,192293;238,218
19,88;0,19233;238,208
19,9;0,19234;238,21
19,92;0,192354;238,204
19,94;0,192366;238,209
19,96;0,192404;238,204
19,98;0,192461;238,197
20;0,192478;238,186
20,02;0,192509;238,172
20,04;0,192668;238,15
20,06;0,192725;238,153
20,08;0,192836;238,154
20,1;0,192938;238,163
20,12;0,192962;238,174
20,14;0,192975;238,17
20,16;0,193168;238,159
20,18;0,193373;238,149
20,2;0,193378;238,135
20,22;0,193389;238,137
20,24;0,193378;238,148
20,26;0,193388;238,155
20,28;0,193394;238,152
20,3;0,193384;238,14
20,32;0,193376;238,106
20,34;0,193386;238,078
20,36;0,193366;238,062
20,38;0,193368;238,057
20,4;0,19336;238,043
20,42;0,19336;238,026
20,44;0,193344;238,01
20,46;0,193326;237,976
20,48;0,193328;237,948
20,5;0,193324;237,946
20,52;0,193339;237,945
20,54;0,193331;237,941
20,56;0,193315;237,946
20,58;0,193329;237,932
20,6;0,193344;237,897
20,62;0,19335;237,889
20,64;0,193365;237,857
20,66;0,19337;237,818
20,68;0,193366;237,802
20,7;0,193363;237,808
20,72;0,193373;237,794
20,74;0,193365;237,801
20,76;0,193371;237,808
20,78;0,193392;237,804
20,8;0,193399;237,772
20,82;0,193419;237,752
20,84;0,193547;237,751
20,86;0,193652;237,758
20,88;0,193804;237,754
20,9;0,193931;237,769
20,92;0,193983;237,785
20,94;0,194007;237,776
20,96;0,194292;237,755
20,98;0,194401;237,757
21;0,194463;237,758
21,02;0,194564;237,757
21,04;0,194671;237,765
21,06;0,194782;237,754
21,08;0,195018;237,726
21,1;0,195156;237,703
21,12;0,195259;237,659
21,14;0,195369;237,604
21,16;0,1955;237,574
21,18;0,195629;237,544
21,2;0,195648;237,511
21,22;0,195753;237,492
21,24;0,195882;237,479
21,26;0,196046;237,465
21,28;0,196182;237,449
21,3;0,196276;237,435
21,32;0,196429;237,418
21,34;0,196556;237,411
21,36;0,196768;237,421
21,38;0,196917;237,431
21,4;0,197053;237,421
21,42;0,197183;237,413
21,44;0,197298;237,41
21,46;0,197449;237,395
21,48;0,197669;237,408
21,5;0,197755;237,428
21,52;0,197933;237,439
21,54;0,198131;237,438
21,56;0,198334;237,428
21,58;0,19837;237,401
21,6;0,198489;237,38
21,62;0,198648;237,371
21,64;0,198805;237,347
21,66;0,198965;237,336
21,68;0,199131;237,319
21,7;0,199252;237,305
21,72;0,199375;237,3
21,74;0,199483;237,301
21,76;0,19957;237,299
21,78;0,19959;237,285
21,8;0,199751;237,256
21,82;0,199808;237,227
21,84;0,199888;237,209
21,86;0,20004;237,182
21,88;0,200181;237,156
21,9;0,200241;237,136
21,92;0,200294;237,122
21,94;0,200364;237,107
21,96;0,20042;237,116
21,98;0,200538;237,136
22;0,200681;237,153
22,02;0,200707;237,151
22,04;0,200797;237,142
22,06;0,20098;237,115
22,08;0,201037;237,089
22,1;0,20115;237,085
22,12;0,201311;237,072
22,14;0,201408;237,07
22,16;0,201554;237,087
22,18;0,201683;237,104
22,2;0,201771;237,108
22,22;0,201828;237,132
22,24;0,202048;237,145
22,26;0,202145;237,158
22,28;0,20226;237,189
22,3;0,202369;237,224
22,32;0,202447;237,25
22,34;0,202533;237,239
22,36;0,202725;237,009
22,38;0,202846;236,486
22,4;0,202753;235,75
22,42;0,202422;234,873
22,44;0,201955;233,95
22,46;0,201444;233,176
22,48;0,2014;232,641
22,5;0,201158;232,291
22,52;0,20113;232,063
22,54;0,201033;231,913
22,56;0,201059;231,796
22,58;0,200989;231,72
22,6;0,201027;231,653
22,62;0,20104;231,615
22,64;0,201027;231,58
22,66;0,20102;231,567
22,68;0,201051;231,538
22,7;0,201031;231,533
22,72;0,201012;231,515
22,74;0,201028;231,515
22,76;0,201039;231,51
22,78;0,201027;231,514
22,8;0,201033;231,511
22,82;0,201035;231,522
22,84;0,201028;231,518
22,86;0,201032;231,522
22,88;0,201038;231,528
22,9;0,201021;231,53
22,92;0,201043;231,528
22,94;0,201046;231,531
22,96;0,201046;231,53
22,98;0,20105;231,535
23;0,20106;231,537
23,02;0,201039;231,541
23,04;0,201045;231,547
23,06;0,201065;231,552
23,08;0,201042;231,553
23,1;0,201037;231,56
23,12;0,201054;231,563
23,14;0,201043;231,565
23,16;0,201055;231,574
23,18;0,201088;231,578
23,2;0,201064;231,578
23,22;0,201032;231,585
23,24;0,201094;231,584
23,26;0,201103;231,579
23,28;0,201044;231,577
23,3;0,201071;231,58
23,32;0,201157;231,574
23,34;0,201092;231,579
23,36;0,201107;231,591
23,38;0,20118;231,592
23,4;0,201182;231,594
23,42;0,201145;231,601
23,44;0,201282;231,6
23,46;0,201265;231,595
23,48;0,201225;231,606
23,5;0,201285;231,608
23,52;0,201378;231,611
23,54;0,201281;231,619
23,56;0,201378;231,613
23,58;0,201545;231,612
23,6;0,201506;231,609
23,62;0,20161;231,607
23,64;0,201711;231,601
23,66;0,201487;231,608
23,68;0,201543;231,604
23,7;0,201651;231,608
23,72;0,201598;231,604
23,74;0,201571;231,61
23,75;0,20157;231,613
23,76;0,20165;231,614
23,77;0,201579;231,617
